5.900000000000000000e+01, nan
6.400000000000000000e+01, 0.000000000000000000e+00
2.100000000000000000e+01, 1.000000000000000056e-01
1.652000000000000000e+03, nan
1.900000000000000000e+01, 2.625000000000000111e-01
3.500000000000000000e+01, 5.000000000000000000e-01
4.000000000000000000e+01, nan
3.800000000000000000e+01, 1.428571428571428770e-01
6.100000000000000000e+01, nan
1.480000000000000000e+02, nan
6.600000000000000000e+01, nan
1.290000000000000000e+03, nan
9.700000000000000000e+01, 0.000000000000000000e+00
5.600000000000000000e+01, 3.333333333333333148e-01
1.180000000000000000e+02, nan
2.920000000000000000e+02, nan
1.230000000000000000e+02, 0.000000000000000000e+00
4.050000000000000000e+02, nan
3.230000000000000000e+02, nan
8.000000000000000000e+00, 2.298101121024936633e-01
3.700000000000000000e+01, 2.500000000000000000e-01
1.066000000000000000e+03, nan
6.300000000000000000e+01, 0.000000000000000000e+00
7.300000000000000000e+01, 0.000000000000000000e+00
1.810000000000000000e+02, nan
1.000000000000000000e+00, 4.935636979950362502e+01
1.250000000000000000e+02, 0.000000000000000000e+00
2.434000000000000000e+03, nan
4.170000000000000000e+02, nan
1.300000000000000000e+01, 1.746031746031746490e-01
4.400000000000000000e+01, 0.000000000000000000e+00
4.900000000000000000e+01, 0.000000000000000000e+00
7.000000000000000000e+01, nan
1.100000000000000000e+01, 2.473572938689218292e-01
7.500000000000000000e+01, nan
8.000000000000000000e+01, nan
1.400000000000000000e+01, 2.318840579710145233e-01
1.930000000000000000e+02, nan
9.000000000000000000e+00, 2.658653846153846145e-01
3.930000000000000000e+02, nan
3.000000000000000000e+01, 2.999999999999999889e-01
4.710000000000000000e+02, nan
4.600000000000000000e+01, 0.000000000000000000e+00
1.000000000000000000e+01, 1.480769230769230504e-01
1.590000000000000000e+02, nan
7.700000000000000000e+01, nan
1.690000000000000000e+02, nan
3.900000000000000000e+01, 1.666666666666666019e-01
1.080000000000000000e+02, nan
1.950000000000000000e+02, nan
6.000000000000000000e+00, 2.138595501088446649e-01
1.600000000000000000e+01, 2.777777777777777346e-01
2.582000000000000000e+03, nan
1.350000000000000000e+02, nan
5.300000000000000000e+01, nan
1.200000000000000000e+01, 2.333333333333333370e-01
5.800000000000000000e+01, nan
1.450000000000000000e+02, nan
7.900000000000000000e+01, nan
8.400000000000000000e+01, 0.000000000000000000e+00
1.710000000000000000e+02, 0.000000000000000000e+00
2.000000000000000000e+00, 4.538366202083016221e-01
3.100000000000000000e+02, nan
1.800000000000000000e+01, 1.973684210526315819e-01
2.330000000000000000e+02, nan
3.200000000000000000e+02, nan
4.020000000000000000e+02, nan
2.900000000000000000e+01, 0.000000000000000000e+00
3.400000000000000000e+01, 0.000000000000000000e+00
2.300000000000000000e+01, 1.111111111111111188e-01
5.500000000000000000e+01, nan
6.000000000000000000e+01, 2.500000000000000000e-01
1.470000000000000000e+02, nan
6.500000000000000000e+01, 0.000000000000000000e+00
2.400000000000000000e+01, 2.333333333333333370e-01
1.520000000000000000e+02, nan
8.600000000000000000e+01, nan
1.730000000000000000e+02, nan
4.000000000000000000e+00, 2.918910554008046221e-01
1.310000000000000000e+03, nan
1.500000000000000000e+01, 1.318681318681318992e-01
2.000000000000000000e+01, 2.631578947368420907e-01
3.600000000000000000e+01, 1.999999999999999556e-01
4.100000000000000000e+01, 0.000000000000000000e+00
1.280000000000000000e+02, nan
6.200000000000000000e+01, nan
1.190000000000000000e+02, nan
2.160000000000000000e+02, nan
5.500000000000000000e+02, nan
4.300000000000000000e+01, 0.000000000000000000e+00
4.800000000000000000e+01, nan
1.510000000000000000e+02, nan
6.900000000000000000e+01, 0.000000000000000000e+00
7.400000000000000000e+01, 0.000000000000000000e+00
6.070000000000000000e+02, nan
1.000000000000000000e+02, nan
1.050000000000000000e+02, 0.000000000000000000e+00
1.920000000000000000e+02, nan
2.950000000000000000e+02, nan
8.500000000000000000e+01, 3.333333333333333148e-01
3.000000000000000000e+00, 3.704348462129248287e-01
2.180000000000000000e+02, nan
4.200000000000000000e+01, 1.428571428571428770e-01
4.700000000000000000e+02, nan
4.500000000000000000e+01, nan
1.069000000000000000e+03, nan
5.000000000000000000e+01, 2.500000000000000000e-01
7.000000000000000000e+00, 1.860735910572891838e-01
7.100000000000000000e+01, nan
1.580000000000000000e+02, nan
7.600000000000000000e+01, nan
8.100000000000000000e+01, 5.000000000000000000e-01
1.680000000000000000e+02, nan
1.940000000000000000e+02, nan
5.000000000000000000e+00, 2.530189109136477543e-01
2.800000000000000000e+01, 2.142857142857142738e-01
3.100000000000000000e+01, 2.999999999999999889e-01
2.700000000000000000e+01, 1.111111111111111188e-01
1.557000000000000000e+03, nan
2.600000000000000000e+01, 2.500000000000000000e-01
5.200000000000000000e+01, 2.500000000000000000e-01
7.800000000000000000e+01, nan
8.800000000000000000e+01, nan
2.200000000000000000e+01, 2.666666666666667185e-01
3.200000000000000000e+01, 2.857142857142856984e-01
1.700000000000000000e+01, 4.010989010989010617e-01
2.500000000000000000e+01, 2.181818181818181157e-01
3.300000000000000000e+01, nan
5.400000000000000000e+01, nan
