5.500000000000000000e+01, 5.984375000000000000e+00
2.590000000000000000e+02, 0.000000000000000000e+00
1.400000000000000000e+01, 4.291232638888889284e+00
1.300000000000000000e+01, 4.386438516314168368e+00
2.640000000000000000e+02, 0.000000000000000000e+00
1.900000000000000000e+01, 4.299070247933882705e+00
1.800000000000000000e+01, 4.959064327485379842e+00
9.200000000000000000e+01, 3.187500000000000000e+00
2.400000000000000000e+01, 4.124763705103969613e+00
3.900000000000000000e+01, 4.576388888888889284e+00
1.160000000000000000e+02, 0.000000000000000000e+00
1.210000000000000000e+02, 0.000000000000000000e+00
4.400000000000000000e+01, 4.632653061224489832e+00
2.030000000000000000e+02, 0.000000000000000000e+00
2.080000000000000000e+02, 0.000000000000000000e+00
2.290000000000000000e+02, 0.000000000000000000e+00
2.850000000000000000e+02, 0.000000000000000000e+00
4.030000000000000000e+02, 0.000000000000000000e+00
7.410000000000000000e+02, 0.000000000000000000e+00
8.000000000000000000e+00, 5.689599999999995994e+00
1.000000000000000000e+02, 1.000000000000000000e+00
8.100000000000000000e+01, 4.000000000000000000e+00
1.630000000000000000e+02, 4.000000000000000000e+00
1.600000000000000000e+01, 3.992865636147442832e+00
1.430000000000000000e+02, 0.000000000000000000e+00
6.100000000000000000e+01, 0.000000000000000000e+00
5.730000000000000000e+02, 0.000000000000000000e+00
8.700000000000000000e+01, 2.500000000000000000e-01
1.500000000000000000e+01, 4.933518005540165952e+00
2.000000000000000000e+01, 4.727023319615913266e+00
1.180000000000000000e+02, 0.000000000000000000e+00
5.000000000000000000e+01, 1.209876543209876365e+00
2.050000000000000000e+02, 0.000000000000000000e+00
1.230000000000000000e+02, 0.000000000000000000e+00
3.840000000000000000e+02, 0.000000000000000000e+00
2.360000000000000000e+02, 0.000000000000000000e+00
1.020000000000000000e+02, 1.000000000000000000e+00
8.200000000000000000e+01, 4.244897959183673741e+00
6.000000000000000000e+01, 2.888888888888888840e+00
7.000000000000000000e+00, 5.404530321046376429e+00
5.490000000000000000e+02, 0.000000000000000000e+00
4.670000000000000000e+02, 0.000000000000000000e+00
1.150000000000000000e+02, 1.000000000000000000e+00
1.500000000000000000e+02, 0.000000000000000000e+00
6.800000000000000000e+01, 0.000000000000000000e+00
4.980000000000000000e+02, 0.000000000000000000e+00
9.900000000000000000e+01, 2.500000000000000000e-01
1.860000000000000000e+02, 0.000000000000000000e+00
5.200000000000000000e+01, 1.810000000000000053e+00
2.070000000000000000e+02, 0.000000000000000000e+00
3.300000000000000000e+01, 4.168367346938775420e+00
2.940000000000000000e+02, 0.000000000000000000e+00
5.400000000000000000e+01, 4.857142857142856762e+00
3.400000000000000000e+01, 3.750000000000000000e+00
8.300000000000000000e+01, 3.687500000000000000e+00
7.500000000000000000e+02, 0.000000000000000000e+00
2.480000000000000000e+02, 0.000000000000000000e+00
3.700000000000000000e+01, 3.448888888888888005e+00
6.700000000000000000e+01, 2.888888888888888840e+00
3.800000000000000000e+01, 8.625000000000000000e+00
1.310000000000000000e+02, 0.000000000000000000e+00
1.360000000000000000e+02, 0.000000000000000000e+00
5.100000000000000000e+01, 5.138888888888890172e+00
5.000000000000000000e+02, 0.000000000000000000e+00
2.300000000000000000e+01, 3.854318418314255812e+00
5.600000000000000000e+01, 3.859375000000000000e+00
1.880000000000000000e+02, 2.500000000000000000e-01
1.060000000000000000e+02, 0.000000000000000000e+00
2.900000000000000000e+01, 4.581597222222222321e+00
7.800000000000000000e+01, 2.666666666666666519e+00
6.300000000000000000e+01, 2.222222222222222376e-01
5.170000000000000000e+02, 1.000000000000000000e+00
4.000000000000000000e+01, 4.355555555555555181e+00
3.930000000000000000e+02, 0.000000000000000000e+00
1.700000000000000000e+01, 6.625390218522374752e+00
1.090000000000000000e+02, 2.250000000000000000e+00
9.260000000000000000e+02, 0.000000000000000000e+00
4.300000000000000000e+01, 2.673469387755102122e+00
1.980000000000000000e+02, 1.555555555555555358e+00
4.450000000000000000e+02, 0.000000000000000000e+00
9.300000000000000000e+01, 1.555555555555555358e+00
2.200000000000000000e+01, 7.409412744689707786e+00
3.000000000000000000e+00, 6.585009611071786395e+00
1.590000000000000000e+02, 0.000000000000000000e+00
7.700000000000000000e+01, 0.000000000000000000e+00
1.250000000000000000e+02, 6.250000000000000000e+00
1.106000000000000000e+03, 0.000000000000000000e+00
1.030000000000000000e+02, 0.000000000000000000e+00
1.000000000000000000e+01, 4.546892923539416209e+00
3.500000000000000000e+01, 3.778393351800553912e+00
1.080000000000000000e+02, 0.000000000000000000e+00
8.900000000000000000e+01, 5.687500000000000000e+00
3.600000000000000000e+01, 4.604914933837428670e+00
1.480000000000000000e+02, 1.000000000000000000e+00
3.030000000000000000e+02, 0.000000000000000000e+00
3.950000000000000000e+02, 0.000000000000000000e+00
9.600000000000000000e+01, 6.799999999999999822e+00
3.340000000000000000e+02, 0.000000000000000000e+00
1.510000000000000000e+02, 1.000000000000000000e+00
2.500000000000000000e+01, 3.515555555555556655e+00
8.560000000000000000e+02, 0.000000000000000000e+00
2.000000000000000000e+00, 7.281004212913820162e+00
7.600000000000000000e+01, 2.250000000000000000e+00
1.240000000000000000e+02, 4.000000000000000000e+00
1.350000000000000000e+02, 0.000000000000000000e+00
4.000000000000000000e+00, 6.599835089361216767e+00
5.800000000000000000e+01, 5.000000000000000000e-01
1.450000000000000000e+02, 0.000000000000000000e+00
3.000000000000000000e+01, 2.477508650519030908e+00
1.710000000000000000e+02, 0.000000000000000000e+00
6.500000000000000000e+01, 5.836734693877551727e+00
1.200000000000000000e+01, 4.947900008416799444e+00
2.790000000000000000e+02, 0.000000000000000000e+00
6.220000000000000000e+02, 0.000000000000000000e+00
2.020000000000000000e+02, 0.000000000000000000e+00
1.200000000000000000e+02, 0.000000000000000000e+00
2.230000000000000000e+02, 0.000000000000000000e+00
4.900000000000000000e+01, 4.666666666666666963e+00
9.956000000000000000e+03, 0.000000000000000000e+00
8.500000000000000000e+01, 6.666666666666666297e-01
8.800000000000000000e+01, 2.913580246913580751e+00
1.470000000000000000e+02, 0.000000000000000000e+00
8.600000000000000000e+01, 0.000000000000000000e+00
1.730000000000000000e+02, 0.000000000000000000e+00
4.200000000000000000e+01, 2.409722222222221877e+00
9.100000000000000000e+01, 0.000000000000000000e+00
1.290000000000000000e+02, 2.888888888888888840e+00
6.080000000000000000e+02, 0.000000000000000000e+00
1.990000000000000000e+02, 0.000000000000000000e+00
1.170000000000000000e+02, 0.000000000000000000e+00
2.040000000000000000e+02, 2.500000000000000000e-01
2.910000000000000000e+02, 0.000000000000000000e+00
4.600000000000000000e+01, 4.780612244897959329e+00
1.220000000000000000e+02, 2.500000000000000000e-01
6.900000000000000000e+01, 7.250000000000000000e+00
9.400000000000000000e+01, 2.000000000000000000e+00
2.090000000000000000e+02, 0.000000000000000000e+00
2.300000000000000000e+02, 0.000000000000000000e+00
1.233000000000000000e+03, 0.000000000000000000e+00
8.000000000000000000e+01, 1.000000000000000000e+00
2.800000000000000000e+01, 2.609375000000000000e+00
6.600000000000000000e+01, 5.555555555555554692e-01
1.920000000000000000e+02, 6.250000000000000000e+00
2.350000000000000000e+02, 0.000000000000000000e+00
7.520000000000000000e+02, 0.000000000000000000e+00
3.740000000000000000e+02, 0.000000000000000000e+00
1.130000000000000000e+02, 4.000000000000000000e+00
4.610000000000000000e+02, 0.000000000000000000e+00
4.870000000000000000e+02, 0.000000000000000000e+00
6.200000000000000000e+01, 0.000000000000000000e+00
1.540000000000000000e+02, 0.000000000000000000e+00
7.200000000000000000e+01, 0.000000000000000000e+00
1.750000000000000000e+02, 0.000000000000000000e+00
9.800000000000000000e+01, 0.000000000000000000e+00
7.000000000000000000e+01, 2.250000000000000000e+00
1.190000000000000000e+02, 0.000000000000000000e+00
2.060000000000000000e+02, 0.000000000000000000e+00
2.930000000000000000e+02, 0.000000000000000000e+00
3.200000000000000000e+01, 4.652892561983470010e+00
4.700000000000000000e+01, 4.839999999999999858e+00
2.110000000000000000e+02, 0.000000000000000000e+00
2.980000000000000000e+02, 0.000000000000000000e+00
4.060000000000000000e+02, 0.000000000000000000e+00
6.000000000000000000e+00, 5.695541299467424601e+00
2.370000000000000000e+02, 0.000000000000000000e+00
1.886000000000000000e+03, 0.000000000000000000e+00
3.600000000000000000e+02, 0.000000000000000000e+00
4.680000000000000000e+02, 0.000000000000000000e+00
1.154000000000000000e+03, 0.000000000000000000e+00
1.560000000000000000e+02, 0.000000000000000000e+00
1.610000000000000000e+02, 0.000000000000000000e+00
2.700000000000000000e+01, 3.925925925925925597e+00
1.050000000000000000e+02, 0.000000000000000000e+00
2.950000000000000000e+02, 0.000000000000000000e+00
1.260000000000000000e+02, 0.000000000000000000e+00
1.380000000000000000e+02, 1.755555555555555713e+01
5.000000000000000000e+00, 6.694155138955642848e+00
7.900000000000000000e+01, 3.583333333333333481e+00
2.180000000000000000e+02, 0.000000000000000000e+00
8.400000000000000000e+01, 1.000000000000000000e+00
2.440000000000000000e+02, 0.000000000000000000e+00
2.820000000000000000e+02, 2.888888888888888840e+00
7.560000000000000000e+02, 0.000000000000000000e+00
1.100000000000000000e+02, 1.000000000000000000e+00
1.110000000000000000e+02, 4.222222222222222321e+00
9.700000000000000000e+01, 1.000000000000000000e+00
4.500000000000000000e+01, 7.500000000000000000e-01
1.320000000000000000e+02, 0.000000000000000000e+00
1.370000000000000000e+02, 0.000000000000000000e+00
1.504000000000000000e+03, 0.000000000000000000e+00
7.100000000000000000e+01, 2.500000000000000000e-01
5.900000000000000000e+01, 6.472222222222222321e+00
1.131000000000000000e+03, 0.000000000000000000e+00
1.940000000000000000e+02, 2.500000000000000000e-01
4.100000000000000000e+01, 4.224852071005917864e+00
7.320000000000000000e+02, 0.000000000000000000e+00
3.070000000000000000e+02, 0.000000000000000000e+00
3.330000000000000000e+02, 0.000000000000000000e+00
7.300000000000000000e+01, 1.687500000000000000e+00
3.640000000000000000e+02, 0.000000000000000000e+00
7.400000000000000000e+01, 6.160000000000001030e+00
1.340000000000000000e+02, 0.000000000000000000e+00
1.390000000000000000e+02, 2.500000000000000000e-01
5.700000000000000000e+01, 2.500000000000000000e-01
1.440000000000000000e+02, 0.000000000000000000e+00
5.300000000000000000e+01, 5.360000000000000320e+00
3.100000000000000000e+01, 3.172839506172838941e+00
6.400000000000000000e+01, 3.555555555555555358e+00
1.420000000000000000e+02, 2.250000000000000000e+00
1.700000000000000000e+02, 0.000000000000000000e+00
1.910000000000000000e+02, 0.000000000000000000e+00
2.570000000000000000e+02, 0.000000000000000000e+00
3.090000000000000000e+02, 2.500000000000000000e-01
4.800000000000000000e+01, 4.410000000000000142e+00
7.970000000000000000e+02, 0.000000000000000000e+00
2.530000000000000000e+02, 0.000000000000000000e+00
2.100000000000000000e+01, 3.245351239669421961e+00
1.000000000000000000e+00, 8.013759234535688947e+00
2.600000000000000000e+01, 5.098888888888887472e+00
7.500000000000000000e+01, 1.000000000000000000e+00
9.000000000000000000e+00, 5.014133449163016287e+00
4.790000000000000000e+02, 0.000000000000000000e+00
1.100000000000000000e+01, 6.197750014133072582e+00
