1.800000000000000000e+01, 4.394079555966698969e-01
1.400000000000000000e+01, 4.174476578345517552e+00
8.000000000000000000e+00, 2.534232278990936891e+02
1.000000000000000000e+01, 2.245437600852002049e+02
4.000000000000000000e+00, 2.147992332364225877e+04
7.000000000000000000e+00, 6.029097097197039830e+02
2.000000000000000000e+01, 0.000000000000000000e+00
9.000000000000000000e+00, 7.622639774124985479e+01
1.200000000000000000e+01, 1.447671823709768546e+01
2.100000000000000000e+01, 0.000000000000000000e+00
1.500000000000000000e+01, 3.150010912048847089e+00
5.000000000000000000e+00, 7.192304460528212076e+03
1.600000000000000000e+01, 8.811536734999296794e-01
1.300000000000000000e+01, 3.146167439156240775e+01
3.000000000000000000e+00, 8.265980266106429044e+05
6.000000000000000000e+00, 1.270560533965029890e+03
2.000000000000000000e+00, 8.278631385281386611e+04
2.200000000000000000e+01, nan
1.000000000000000000e+00, 2.122500000000000000e+02
1.700000000000000000e+01, 2.620481927710843206e-01
1.100000000000000000e+01, 2.988531898977856471e+01
1.900000000000000000e+01, 1.356060606060605522e+00
