,rho_f_sim_l,p_f_sim_l,rho_f_sim_m_l_f,p_f_sim_m_l_f,rho_f_sim_v_l_f,p_f_sim_v_l_f,rho_l_sim_f,p_l_sim_f,rho_l_sim_m_f_l,p_l_sim_m_f_l,rho_l_sim_v_f_l,p_l_sim_v_f_l,z_t_f_sim_m_l_f_and_f_sim_v_l_f,z_p_f_sim_m_l_f_and_f_sim_v_l_f,z_t_f_sim_l_and_f_sim_m_l_f,z_p_f_sim_l_and_f_sim_m_l_f,z_t_f_sim_l_and_f_sim_v_l_f,z_p_f_sim_l_and_f_sim_v_l_f,z_t_l_sim_m_f_l_and_l_sim_v_f_l,z_p_l_sim_m_f_l_and_l_sim_v_f_l,z_t_l_sim_f_and_l_sim_m_f_l,z_p_l_sim_f_and_l_sim_m_f_l,z_t_l_sim_f_and_l_sim_v_f_l,z_p_l_sim_f_and_l_sim_v_f_l
Latin,-0.28493484118193324,5.193998787509793e-291,-0.7171149782871991,3.036390479383857e-35,-0.8083622743089783,6.511727458691481e-51,-0.2849348411819333,5.19399878750861e-291,-0.9956105680902259,6.210924520031274e-19,-0.9942958394660028,5.733179548914896e-18,2.9208802866877503,0.0038681283168329078,8.802620561268652,0.0,11.993203437263874,0.0,,,172.238908040577,0.0,170.5184804180079,0.0
Greek,-0.33947663265440475,0.0,-0.7241056344954171,1.722874640545603e-38,-0.8057164619765177,1.5256637087741589e-53,-0.33947663265440475,0.0,-0.992971656518888,3.365746460599052e-17,-0.9912141845604474,2.230536684414085e-16,2.3525766369036627,0.01950264518110204,8.399252238045634,0.0,11.361701049902749,0.0,,,162.3563236027893,0.0,160.00575601248582,0.0
Romanian,-0.27765440035548217,6.973377242475199e-170,-0.6836981912590444,7.446562828147257e-38,-0.8042403686968543,2.236551080397858e-61,-0.27765440035548217,6.973377242475199e-170,-0.9993870670585656,2.945915379008689e-23,-0.9822196818575596,2.6104104412544696e-12,3.526548212632401,0.0004968849317238489,8.79789414030434,0.0,13.181425570553785,0.0,,,176.64700276971192,0.0,151.1302701066912,0.0
Italian,-0.31888563875217524,1.704970360135459e-300,-0.6579546469950012,9.574439067841243e-35,-0.7611682278486329,3.938589242800606e-52,-0.31888563875217524,1.704970360135459e-300,-0.8914646737560534,2.5978686957769525e-08,-0.9716913237732892,5.307563253084842e-14,2.445278869179662,0.015122927528489425,7.4061219084900545,1.3011813848606835e-13,10.79266069579553,0.0,,,91.67054054384937,0.0,140.7602851473876,0.0
Spanish,-0.2979923641427685,1.2270710221185289e-229,-0.6425463582170019,1.9297978235801593e-31,-0.7537633253889734,1.38142420894691e-48,-0.2979923641427685,1.2270710221185289e-229,-0.956656346749226,5.46578066361063e-10,-0.9752321981424148,6.588737187082593e-12,2.4633038807481453,0.014427443276149724,7.187740407936071,6.588063428125679e-13,10.647743574102062,0.0,,,106.13423138707708,0.0,118.56094499440908,0.0
Portuguese,-0.3224305307909427,1.3719211134480826e-293,-0.6572550379412517,1.5427698699821466e-33,-0.8034906373956588,4.7309384107127466e-60,-0.32243053079094264,1.3719211134480826e-293,-0.9633455078314308,1.4603417704154857e-10,-0.9752321981424148,6.588737187082593e-12,3.8323655281956137,0.00015963101061338198,7.196588627562845,6.17284001691587e-13,12.28010031307641,0.0,,,125.92034740048894,0.0,136.19768248149444,0.0
French,-0.30517660026673743,6.96443132259646e-235,-0.690634695562424,6.856205715710289e-39,-0.7355196956571164,2.255716297694274e-46,-0.3051766002667374,6.96443132259646e-235,-0.9664430818115962,7.276789729487313e-11,-0.9649122807017544,1.0347287642285864e-10,1.0651530849961215,0.2877872826275776,8.541198988372704,0.0,10.00452653684131,0.0,,,107.0556152043292,0.0,106.0593122727225,0.0
English,-0.29497298218609863,5.295179151851823e-121,-0.6992999036343366,5.189088544320584e-43,-0.7606947136381561,7.376313248688429e-55,-0.2949729821860987,5.295179151851824e-121,-0.9294117647058824,1.9401189481036679e-07,-0.9647058823529412,1.6662077463303432e-09,1.6624037568191483,0.09754687331209554,9.206797883953586,0.0,11.368436355440377,0.0,,,66.60876795368651,0.0,80.26701139403758,0.0
Dutch,-0.3194912467003061,8.703794942150988e-197,-0.7111538396389497,9.533413942766692e-47,-0.7845629756179374,8.983455787893864e-63,-0.3194912467003062,8.703794942149502e-197,-0.9036995559460992,8.277665433330032e-09,-0.9466252848535388,2.7147980745494105e-11,2.18770167123031,0.029484007684202236,9.379316803812074,0.0,12.194546274741404,0.0,,,74.83581025440756,0.0,92.69903943199871,0.0
Afrikaans,-0.307200072596756,3.376718778297947e-147,-0.6908442618458107,2.3499899776058456e-38,-0.7836255460340612,1.7894719782247494e-55,-0.3072000725967561,3.376718778296986e-147,-0.9777986631019241,2.3441658209783715e-14,-0.972569793245764,1.7129264412748724e-13,2.4908170753470293,0.013374386209706376,8.387912255827889,0.0,11.621386391714998,0.0,,,92.2403318269078,0.0,89.14664539196342,0.0
German,-0.33607639713246895,8.541646320368348e-234,-0.6990247167237833,6.474383375400322e-41,-0.7573411922455543,1.6112986028463987e-51,-0.33607639713246906,8.541646320363488e-234,-0.9327403178002144,9.10684055242392e-11,-0.893175511106674,9.808454525317851e-09,1.501232192429352,0.13447715816017855,8.303339247582588,0.0,10.308778581571396,0.0,,,87.88080554417435,0.0,72.60986308956262,0.0
Swedish,-0.2920613104286942,1.1263309846712424e-189,-0.6706231171110758,1.5208902936480559e-37,-0.7852734735245781,3.385132495896617e-59,-0.2920613104286942,1.1263309846712424e-189,-0.9349858885955644,2.2333690542218985e-11,-0.9408695652173912,8.087785796446622e-12,3.0245963832082103,0.002725892731503053,8.342220926945927,0.0,12.375854798724674,0.0,,,97.74145573935918,0.0,100.75208454030522,0.0
Norwegian,-0.3178291791495052,1.0432328293269665e-177,-0.6902688977058523,4.062110070506202e-39,-0.8044540683230644,6.91529051829966e-62,-0.3178291791495052,1.0432328293269665e-177,-0.9324675324675324,7.631288718025077e-10,-0.9470607839537418,8.000499820269805e-11,3.2382033212428643,0.001356752710590953,8.293552639572441,0.0,12.48857380332901,0.0,,,77.20006444193915,0.0,83.35321588392509,0.0
Danish,-0.3173283638131667,3.70057757490689e-208,-0.6934241526825727,2.591014887710867e-38,-0.7890973371451023,4.158180787651509e-56,-0.3173283638131667,3.70057757490689e-208,-0.8777181937126487,8.069611013369901e-08,-0.9311123658949748,3.262134510942226e-10,2.5837639451511007,0.010330107757288534,8.279745864710845,2.220446049250313e-16,11.657372376950905,0.0,,,74.86434191715311,0.0,96.3705911369341,0.0
Icelandic,-0.3117778842774633,1.6299943689293472e-293,-0.6981515319819425,4.1830697074156466e-36,-0.8030473276468404,5.660127896622807e-55,-0.3117778842774634,1.6299943689289765e-293,-0.9070884292808968,5.8694078891948255e-09,-0.9375882892940776,1.2490620285307447e-10,3.0137253201486205,0.002863382606530812,8.222636331190603,2.220446049250313e-16,11.921645061563689,0.0,,,128.83052017086993,0.0,155.5156597334939,0.0
Polish,-0.2513685615248058,1.3494275047691844e-223,-0.7032636540568251,3.1148538435879874e-36,-0.8039479997320055,2.81542690738608e-54,-0.2513685615248058,1.3494275047691844e-223,-0.932330827067669,2.206697206858683e-09,-0.9729323308270676,6.71494420223351e-13,2.9758266287023383,0.003232624009269595,9.306788630560256,0.0,12.86664247263776,0.0,,,139.01009449058458,0.0,176.76967852629883,0.0
Slovak,-0.3061033802914907,0.0,-0.6907906507401164,4.3462055926452056e-35,-0.7489331687086409,4.587176426189344e-44,-0.3061033802914907,0.0,-0.9679685003804068,1.2288714621811945e-11,-0.9644581885023276,2.93899064782406e-11,1.3416799771113157,0.1809947955740719,8.114739419834995,4.440892098500626e-16,9.956970884886044,0.0,,,177.22517518801965,0.0,172.75041757716969,0.0
Croatian,-0.29548354702550644,0.0,-0.8020034012256914,1.0402567471740055e-52,-0.7753121094670062,3.3860632957474385e-47,-0.29548354702550644,0.0,-0.9876992406435664,3.850691266927178e-15,-0.9806693528098044,1.7534781628266367e-13,-1.1002579996808934,0.27239027989307685,11.938414413481386,0.0,10.88299018622551,0.0,,,172.61193481272795,0.0,164.0796283578444,0.0
Serbian,-0.309749495209466,1.4574461840455297e-284,-0.7747534888959329,2.736071362413671e-46,-0.7880988363317983,6.8402581052994155e-49,-0.30974949520946593,1.4574461840460273e-284,-0.9834560848371364,2.679263948345098e-13,-0.977251314585798,3.3582102857029576e-12,0.5294894857808595,0.5969950204500614,10.515994131909935,0.0,11.022460725091108,0.0,,,129.93604246306157,0.0,124.4273202089775,0.0
Slovene,-0.2915653208521629,7.483376593443443e-287,-0.7410857393421958,2.2946116691611432e-42,-0.8069235788695405,2.0013874513410864e-55,-0.2915653208521629,7.483376593443443e-287,-0.8743293203778507,1.0452521181965793e-07,-0.9683443158808622,1.6002712964574395e-13,2.394796752594004,0.017420694584511134,9.88383437881497,0.0,12.386779383789124,0.0,,,96.40489699545256,0.0,154.8131180087267,0.0
Czech,-0.299261913644498,0.0,-0.6756902114545327,1.2530790787091294e-33,-0.7250532242639005,9.452427589809043e-41,-0.29926191364449795,0.0,-0.9926470588235295,3.578273822703326e-15,-0.9681372549019608,1.9909901926022063e-10,1.06464060885303,0.2881130050850901,7.862674346363192,3.774758283725532e-15,9.352211756003516,0.0,,,152.94478695528278,0.0,129.40060104613698,0.0
Latvian,-0.2789589977734833,7.764652525922389e-278,-0.7056600517543675,2.074457648683228e-33,-0.7970352645899442,4.2192666450439195e-48,-0.2789589977734832,7.764652525923272e-278,-0.8431372549019607,1.1129003812786908e-05,-0.8183694530443757,3.3103070471624634e-05,2.418395252644037,0.01644193004917276,8.520976441191692,0.0,11.571954327867205,0.0,,,81.71073077652147,0.0,74.73407661569497,0.0
Lithuanian,-0.3034940460618542,0.0,-0.735540655162787,1.0473247604897655e-37,-0.7725375099074043,1.0777887727707658e-43,-0.3034940460618542,0.0,-0.987782343844062,2.9485509643910678e-19,-0.9790486361177662,1.0679915883258487e-16,1.0640076152878848,0.28854138697320303,9.062275463542683,0.0,10.303135539031937,0.0,,,169.86185972664023,0.0,159.8823875356619,0.0
Albanian,-0.2741103788427903,1.3557897873327016e-212,-0.6102071656844766,8.603195825248282e-27,-0.7795326841483385,4.246160792305881e-52,-0.2741103788427902,1.3557897873329333e-212,-0.975438596491228,1.3190643557743196e-12,-0.9789473684210528,3.6006418847130656e-13,3.6822861335687613,0.0002841549587062853,6.646490716136343,3.001643378297558e-11,11.848257494690767,0.0,,,136.50422908587493,0.0,139.6252324639908,0.0
Romani,-0.31316188773913417,8.250012217948411e-162,-0.6155357882517856,3.769406663200188e-32,-0.7612997506410252,4.524170454588084e-57,-0.3131618877391341,8.250012217951697e-162,-0.9938422426892092,1.0969706081853762e-17,-0.9920801110532352,9.26062279926602e-17,3.356177587988304,0.0008949183734013397,6.594304904597053,4.2725378790464674e-11,11.309079411231355,0.0,,,152.8749993403006,0.0,150.0244158483683,0.0
Finnish,-0.31943621309468234,0.0,-0.6247909634399627,7.170889815566074e-26,-0.8017257095332937,5.6521400478228195e-52,-0.31943621309468234,0.0,-0.9585630491235336,1.3681423125231043e-14,-0.7948588795825591,1.2323685776043973e-06,3.9905778871297417,8.943651479120607e-05,5.96494874953485,2.447108293779365e-09,11.466610420873556,0.0,,,134.82302162511985,0.0,65.89628718490647,0.0
Estonian,-0.33708055813044463,0.0,-0.6423152204200338,1.4307015705056299e-27,-0.7719181349796077,9.268650863286176e-46,-0.3370805581304446,0.0,-0.9851622315261732,2.4691667016130374e-18,-0.9764285237998774,3.8567498185101277e-16,2.7912247315164844,0.005708266010481213,6.079144064850923,1.2082577161010024e-09,9.965558016748655,0.0,,,210.6181554463964,0.0,192.56474412279624,0.0
Hungarian,-0.2796168819780629,0.0,-0.6347415471881922,7.748997150708427e-24,-0.7960503996192213,7.768522142978386e-45,-0.2796168819780629,0.0,-0.9357707509881424,5.6886500950285825e-11,-0.9733201581027668,6.620049324533835e-15,3.4263375996276655,0.0007453022246153622,6.439277698706277,1.200433086268049e-10,11.155581055288717,0.0,,,200.9953912045426,0.0,273.23151104474,0.0
Paite,-0.31236287893045106,2.0004166569633393e-267,-0.5344553191727773,1.1090852444090024e-20,-0.7732675877843381,3.6367246397839203e-53,-0.3123628789304511,2.0004166569631117e-267,-0.9842105263157892,3.1778177848672564e-14,-0.9736842105263156,2.3570549972990566e-12,4.688296297433349,4.466906379383264e-06,4.341384350768125,1.415877974753066e-05,11.206928791648247,0.0,,,125.33349244521536,0.0,115.26309687541216,0.0
Vietnamese,-0.19600063962263192,2.3937595486750553e-28,-0.1997849549041142,0.00022807851434210308,-0.7442283565184192,1.6830949557236785e-60,-0.19600063962263192,2.3937595486750553e-28,-0.9160839160839164,2.8428045348547108e-05,-0.8881118881118882,0.00011413359814618013,9.311989426209095,1.7512291307396004e-18,0.06831009146349319,0.9455387910690471,13.204296038419454,0.0,,,45.48075306893636,0.0,40.95412524234778,1.1420311458498248e-293
Turkish,-0.33031515101764786,0.0,-0.6459294421120843,3.0750107791721037e-25,-0.7844171442709471,2.3230676952918283e-43,-0.3303151510176478,0.0,-0.9945548080638988,4.114789491660275e-22,-0.9915830307489666,3.9330582269345197e-20,2.9399402994315884,0.0036712613722050813,5.968160009712178,2.3994399800386645e-09,10.01809379138366,0.0,,,183.42569466946028,0.0,178.9315306924491,0.0
Basque,-0.28392821495821624,0.0,-0.6056434788443541,1.0320505863314842e-23,-0.7834125183008325,1.530577523503389e-47,-0.2839282149582163,0.0,-0.9739972307429804,2.2910790751673078e-14,-0.9434714904875418,4.756862580979775e-11,3.662691931504348,0.00031269527164300343,6.043444808133284,1.5085799276448595e-09,11.233122414084379,0.0,,,145.17073494670558,0.0,122.56667889543994,0.0
Hebrew,-0.28198271854881235,0.0,-0.535797786674236,3.5031247231584275e-16,-0.7940685471799629,1.8107449157344958e-44,-0.28198271854881235,0.0,-0.612691249227479,0.03416813855342598,-0.612691249227479,0.03416813855342598,4.6153074628672215,7.0852822451897045e-06,4.294022978811444,1.7546430206794028e-05,11.034334469497411,0.0,0.0,1.0,41.33967604860565,0.0,41.33967604860565,0.0
Somali,-0.3318824042221573,0.0,-0.5933224276333249,7.071869966559861e-27,-0.761612676760178,4.908379412195067e-52,-0.3318824042221573,0.0,-0.8684496835001589,3.781218478173881e-08,-0.9934664100407462,3.0957960074341436e-22,3.5715853351323994,0.000421290555109472,5.450351024297198,5.0270497986559803e-08,10.568847600819078,0.0,,,100.02370165762892,0.0,226.05479540566787,0.0
Tachelhit,-0.35006927250865283,0.0,-0.4724831404165805,1.4492963214391456e-11,-0.831356794937021,4.7129546233524174e-48,-0.3500692725086528,0.0,-0.9137801014045376,1.7922023144945408e-10,-0.9568901988591748,7.665599557177635e-14,6.333329111052602,1.862190860967441e-09,1.9746492596795076,0.04830796479715138,11.053344289574556,0.0,,,123.91603295569736,0.0,156.76367648114763,0.0
Kabyle,-0.28320192748387024,8.768913670361123e-301,-0.5712782354248731,2.070045504276224e-21,-0.785504902268948,1.2565183810776032e-49,-0.28320192748387024,8.768913670361123e-301,-0.9904344108891004,1.9159903459891834e-13,-0.9941176470588234,6.4339974884469385e-15,4.265898954675324,2.9187430695243433e-05,5.372449946018821,7.767399479163827e-08,11.523313165731786,0.0,,,148.8851860383399,0.0,153.2121565181759,0.0
Wolaytta,-0.32012294518623224,0.0,-0.5769054992594191,1.8909366250091944e-21,-0.8175302791012986,1.3433676372691205e-55,-0.32012294518623224,0.0,-0.9585630491235336,1.3681423125231043e-14,-0.9606178466564884,7.510737827010226e-15,5.187665891653031,4.777814668907035e-07,4.836877097336889,1.318949229611732e-06,12.12884918144808,0.0,,,153.22607950916475,0.0,155.2407296648603,0.0
Ewe,-0.3289638964330776,2.111674965084204e-232,-0.6029410182488748,1.1242192260972354e-31,-0.7831996811596252,1.0687782206909834e-64,-0.32896389643307755,2.1116749650849256e-232,-0.9428571428571428,1.6262348159357702e-10,-0.9684963161008427,6.282134526114418e-13,4.328710638009355,2.0402350709487346e-05,6.099316866190412,1.0652272397493334e-09,12.194341097313721,0.0,,,112.07121293992736,0.0,133.41162621413494,0.0
Zulu,-0.2720503995272889,0.0,-0.5267367686151779,7.021728965747467e-14,-0.7647150588180491,7.538581649655469e-35,-0.2720503995272889,0.0,-0.9590436703945976,1.5502714462724593e-13,-0.905013041076592,1.2543084586338208e-09,3.932389679299793,0.00012177976424682959,4.0066663389026775,6.158176098902679e-05,9.520554151912494,0.0,,,174.4024891510363,0.0,134.3262455861527,0.0
Xhosa,-0.3032848113686367,0.0,-0.5959152834449702,3.617420083050536e-19,-0.8045620089374983,2.8095388324238074e-43,-0.3032848113686368,0.0,-0.7946005173110022,2.0993326907778703e-06,-0.7830174193910168,3.709974276444139e-06,4.06998289692846,7.000960452908597e-05,5.024683543535125,5.042633350882396e-07,10.734780060276176,0.0,-0.1467325710837193,0.8846794312777637,93.86066245091637,0.0,90.04345843597119,0.0
Swahili,-0.4066534590138566,0.0,-0.5951310977386379,5.1254247173684814e-26,-0.7836813488319129,1.1762026335456727e-54,-0.4066534590138565,0.0,-0.9609891090125282,4.647450556497328e-12,-0.9232777637332814,2.4726020860442394e-09,4.105414393039046,5.443960492523715e-05,4.017067398301685,5.8926874904052795e-05,9.857595791225377,0.0,,,130.93707622778447,0.0,100.78260429882916,0.0
Wolof,-0.3815826703014209,1.8582562645101165e-245,-0.6248393781308547,1.3622100836500068e-32,-0.8013393407472015,8.889630114986607e-66,-0.3815826703014209,1.8582562645101165e-245,-0.9763816737917836,8.843345109119775e-15,-0.9820848377742122,5.708939079787793e-16,4.493095159253754,1.0214003513930818e-05,5.479151529499587,4.273702480794839e-08,11.59469930465477,0.0,,,99.97080729235472,0.0,104.63618556035587,0.0
Lukpa,-0.3350569608603671,3.8745153863905545e-190,-0.5833842426984267,1.4349927333843225e-28,-0.7519739604677792,1.645510774064049e-55,-0.3350569608603671,3.8745153863905545e-190,-0.8480392156862745,1.70628083552246e-05,-0.8700980392156864,5.6274516063064285e-06,3.586044487129984,0.00039281356670867033,5.372102060110174,7.782403743661348e-08,10.589990843022504,0.0,,,52.25556939687952,0.0,57.170161473940276,0.0
Dinka,-0.33302951117278123,3.1534009310869633e-152,-0.6574717539295826,8.992688562063014e-38,-0.7851642738488012,1.012900903513041e-62,-0.33302951117278123,3.1534009310869633e-152,-0.9714285714285712,1.6870764886091289e-09,-0.95,6.08625795805396e-08,3.370724795579295,0.0008510220883640133,7.3618058598062035,1.8141044222375055e-13,11.863469373710315,0.0,,,131.80183301957194,0.0,109.35902674201908,0.0
Zarma,-0.3173350942814909,6.7938269295091336e-99,-0.6935331696110514,2.439877166077481e-42,-0.7562617176059968,2.950805194635462e-54,-0.3173350942814909,6.7938269295091336e-99,-0.9021501526664174,1.2980802633433484e-07,-0.9332176099319104,5.623813444478666e-09,1.6457933718516065,0.10091641550022412,8.5654666012853,0.0,10.726045526794856,0.0,,,51.96786040681694,0.0,60.270915989444326,0.0
Malagasy,-0.2974093085952818,1.0940646220687794e-219,-0.6713146996317664,4.996805695391329e-35,-0.7840016887862943,9.958415769901693e-55,-0.2974093085952818,1.0940646220687794e-219,-0.7310344827586206,6.669436578749832e-06,-0.9008498651900336,2.7537519731072076e-11,2.881444655274573,0.004296896239946414,7.978397039985804,1.5543122344752194e-15,11.79920147286205,0.0,,,47.40591570615846,0.0,89.83175086573799,0.0
Uma,-0.3250793691855976,1.1774151898890687e-307,-0.5994699894392306,1.1052892704662652e-29,-0.7946603623070726,2.1894983962159263e-64,-0.3250793691855976,1.1774151898890687e-307,-0.9635898914455796,2.4376478508048817e-12,-0.9596887177960022,6.313837480918644e-12,4.687036199553604,4.288222465052833e-06,5.946715644696857,2.735760507022178e-09,12.507029936281908,0.0,,,132.5389392830518,0.0,129.2825761488206,0.0
Tagalog,-0.2752547557303168,1.3666911780482165e-176,-0.5944924662647194,4.7836718092623873e-26,-0.8372533057114011,4.5816226096461283e-69,-0.2752547557303168,1.3666911780482165e-176,-0.9532467532467532,2.517642466247539e-11,-0.6976291371511101,0.0004386393791704958,6.122687085794499,3.4574937758879827e-09,6.341277083146673,2.2786839082300506e-10,14.65862142591938,0.0,-3.892686571585292,0.0010666596842283183,120.83934701429057,0.0,44.017879897470095,0.0
Maori,-0.2585924909891741,7.26136173378923e-52,-0.6516731576810446,7.709156284084832e-36,-0.761666806438472,2.9015305766866657e-55,-0.2585924909891741,7.26136173378923e-52,-0.9635201884847451,9.517975713652326e-12,-0.9698806179701878,1.7368819356867368e-12,2.6487685268040533,0.008533865853381445,8.28005184878744,2.220446049250313e-16,11.858574364183346,0.0,,,117.13794014476484,0.0,126.39439564939299,0.0
Cebuano,-0.2432439014167716,1.534218365264484e-150,-0.6483595616111449,1.2290306506747996e-32,-0.7822965111278681,2.2362206296998875e-55,-0.2432439014167716,1.534218365264484e-150,-0.9694748988532856,1.117591683971651e-13,-0.981317636421393,8.655505646040411e-16,3.2435515826199874,0.0013355430272334345,8.340994929532076,0.0,12.776824815783028,0.0,,,123.56196652972342,0.0,132.61468655929227,0.0
Indonesian,-0.2595620470952088,1.2534107472309183e-111,-0.5516376824634477,1.2890070610864104e-23,-0.8027783664687259,3.750396012641701e-64,-0.25956204709520875,1.2534107472309896e-111,-0.9277636237829692,6.876714019138976e-11,-0.9251526567366758,1.0037828330081169e-10,5.686304096053392,3.3022838433288486e-08,5.789722448231951,7.0502828020124744e-09,13.708071057333465,0.0,,,83.58172560191386,0.0,82.56221526973738,0.0
Galela,-0.27333160020536057,5.27311577892521e-193,-0.5440573628881585,5.6556560636133046e-24,-0.7666377450576631,6.200301171245224e-58,-0.27333160020536057,5.27311577892521e-193,-0.982786670865577,2.130602293358431e-15,-0.9814875477051463,4.231630293790755e-15,4.700372374427949,4.0187219034215595e-06,5.5395908152551145,3.031791950824925e-08,12.30298561442008,0.0,,,139.8412245600557,0.0,138.60610876402015,0.0
Cabecar,-0.3151443436034414,5.534476113054397e-181,-0.6274744055245544,2.830589107971286e-32,-0.7908291948944591,1.1931793388127292e-61,-0.3151443436034414,5.534476113054397e-181,-0.7919464142622803,8.974043228173563e-05,-0.8518328445454776,7.2583978539850176e-06,4.025751203905232,7.323573966421593e-05,6.746344661254519,1.5161649713490988e-11,12.2683016130711,0.0,1.2734965037572592,0.2222233213298184,48.82987814285632,0.0,61.25037334950827,0.0
Chinantec,-0.28777415050669153,1.5767771667954758e-239,-0.4818279597024885,9.26980176608102e-21,-0.7432774353882436,9.592971738269962e-60,-0.28777415050669153,1.5767771667954758e-239,-0.997367501897558,5.711359821883403e-22,-0.9928545267758496,4.494025953230603e-18,5.1534567364834025,4.412169570932754e-07,4.110733242358904,3.9440464695061905e-05,11.865074857629228,0.0,,,172.7526149717318,0.0,166.35411426619018,0.0
Amuzgo,-0.31088560154647144,5.866742163047703e-307,-0.6045365253221967,8.601618993317666e-29,-0.7778030357817469,5.375725425008682e-57,-0.3108856015464715,5.866742163045701e-307,-0.9890283695401008,1.312959182336642e-20,-0.9784452475864932,2.941177030593694e-17,3.92393369080976,0.00011040663823671248,6.185675676532648,6.183702438988803e-10,11.730774818729374,0.0,,,179.63251175871548,0.0,164.8077762447869,0.0
Nahuatl,-0.2894096298605961,3.911568386020768e-288,-0.6127635051532264,1.5155207029181218e-26,-0.7896109035700345,3.02486193459907e-53,-0.2894096298605961,3.911568386019879e-288,-0.9469074986316366,2.5068021840403755e-14,-0.779967159277504,9.91727680742742e-07,3.9499910086698806,0.00010266798557979494,6.397892200149079,1.575364283468161e-10,11.897124743158539,0.0,,,117.68801463566776,0.0,60.333955667535896,0.0
Jakalteko,-0.3483337037179556,0.0,-0.6077377104043238,1.8450598619250407e-29,-0.7697686570172358,9.656833943725162e-56,-0.3483337037179555,0.0,-0.9070884292808968,5.8694078891948255e-09,-0.9118151672596794,3.5527677845054327e-09,3.6439500927225,0.00032089791689385137,5.602785100024376,2.1093468305366517e-08,10.757276136991685,0.0,,,83.72164629669291,0.0,85.64548590412483,0.0
Q'eqchi',-0.2266300711873325,2.5793263998694064e-107,-0.5156855511485399,5.487683625622487e-22,-0.7757330509193506,3.918815167026798e-62,-0.2266300711873325,2.579326399869407e-107,-0.9812072059998016,1.7292076180998316e-16,-0.9713160043264164,1.4038911915602731e-14,5.436479463475458,1.1273600882539885e-07,5.791838049549277,6.962025844714503e-09,13.70247820975278,0.0,,,131.74183167818424,0.0,123.76069209279987,0.0
Uspanteco,-0.3140948947276946,5.767370863442438e-196,-0.456964394132756,1.3206585778367014e-17,-0.781859761989644,5.489871349790096e-66,-0.3140948947276946,5.767370863442438e-196,-0.9969890824476152,1.9104001745822947e-21,-0.9849408760132032,3.581983874299285e-15,6.682112421530633,1.0881828607329735e-10,2.917151500665633,0.0035324414925419494,12.561022171623184,0.0,,,123.5311493194045,0.0,112.62963857175156,0.0
K'iche',-0.28328895905498463,8.868505765660689e-130,-0.5871823292157912,3.157490088769217e-31,-0.7509002289803415,1.3000584254211196e-59,-0.2832889590549847,8.86850576565968e-130,-0.973529411764706,2.276897655666222e-10,-0.9823529411764708,1.3641238342610767e-11,3.684039375238808,0.0002695982048291713,6.6746057381572355,2.478972582764527e-11,11.94408257107234,0.0,,,96.12122741044314,0.0,101.69515036844759,0.0
Cakchiquel,-0.27867599644258784,2.012481841094609e-147,-0.5024783838116647,2.936475898806233e-22,-0.7794341752725409,8.965215836087428e-68,-0.2786759964425879,2.0124818410941513e-147,-0.9894736842105264,1.0305395814380572e-15,-0.9964912280701754,9.285165080058482e-20,6.055996955899474,3.8760450598185956e-09,4.696422094791202,2.647581478720795e-06,13.358821705169479,0.0,,,115.90343515839541,0.0,121.95459300642786,0.0
Mam,-0.3099811336273136,2.500606409770733e-240,-0.5173933400953897,5.4415901597420334e-24,-0.7457379583369468,8.332544466516591e-60,-0.3099811336273136,2.500606409770733e-240,-0.9717441240019188,2.263083782014136e-13,-0.9730432471623492,1.4544681775524446e-13,4.697854512222715,3.877406020214524e-06,4.4942226011537265,6.982455836412883e-06,11.451784686853149,0.0,,,117.37303020460901,0.0,118.35560516223306,0.0
Quichua,-0.2838764335828313,3.455615451958683e-274,-0.5909953886844004,5.147471558202093e-22,-0.7938026847997959,9.259737945089599e-49,-0.2838764335828313,3.455615451958683e-274,-0.9209486166007904,4.710516603350585e-10,-0.8616600790513835,1.2820052784329565e-07,4.189625996406325,4.07224105738836e-05,5.651319672505951,1.5922066554097114e-08,11.523472200143432,0.0,,,114.72066870391151,0.0,89.19786631452502,0.0
Aguaruna,-0.2724928523940861,0.0,-0.5422520877878373,3.956515542709993e-20,-0.8056107773240337,3.590165167376489e-57,-0.2724928523940861,0.0,-0.9811193549182426,6.4957369036627675e-18,-0.955685781695696,1.0461465625222135e-13,5.450782445673412,1.2342420362727846e-07,5.0741134267091885,3.8930679591153705e-07,12.923324670550931,0.0,,,199.16458325949844,0.0,170.87427035892514,0.0
Achuar,-0.2290304629332906,2.0289104586511272e-223,-0.4665521214431525,4.710484145331451e-16,-0.7934542591253254,5.987303870502237e-60,-0.22903046293329066,2.028910458650781e-223,-0.943076923076923,1.7503491349414963e-12,-0.9682631454356864,2.3941651965635772e-15,6.264371020415276,1.4844338050449913e-09,4.429519911235417,9.444309370776338e-06,13.777183987936676,0.0,,,137.82637667971773,0.0,156.61375460299612,0.0
Shuar,-0.2371923196698174,1.2317854865811363e-290,-0.5750871297509944,7.435110666752233e-21,-0.8207657432420714,3.659980966518877e-55,-0.2371923196698174,1.2317854865811363e-290,-0.9334554334554336,1.242433885243441e-12,-0.8949938949938949,3.007275025272968e-10,5.453286557140141,1.3354065580602732e-07,6.0734018852343405,1.2522851644547472e-09,13.480747041517725,0.0,,,190.02547555027348,0.0,156.41629183555003,0.0
Campa,-0.2621709909609987,0.0,-0.5949774104132259,3.7299369935581915e-20,-0.8093708131866125,1.015592801412723e-46,-0.2621709909609987,0.0,-0.9914508390959814,9.035318543118168e-31,-0.9805188111839817,6.6519499032057855e-25,4.3814520242355774,1.9328506628830144e-05,5.769534443065397,7.949083169478401e-09,11.856932884712396,0.0,,,203.2352630716273,0.0,189.17961012319978,0.0
Barasana,-0.3088806829445493,0.0,-0.573139581278686,3.7170764872702594e-27,-0.7856386956170246,4.706646764963832e-63,-0.3088806829445493,0.0,-0.9610646805481118,1.3077860529110578e-16,-0.9556432900424556,7.360227446790488e-16,4.857694404325151,1.939969178914194e-06,5.6497750601764745,1.6065792474151408e-08,12.570285459169414,0.0,,,157.36411749614302,0.0,152.48019474974612,0.0
Akawaio,-0.3485508285153171,4.780447513704823e-269,-0.5776426345228579,1.9812519615251585e-25,-0.7609274692187313,2.8661319732770303e-52,-0.3485508285153171,4.780447513704823e-269,-0.9709645679568912,3.725442654228615e-15,-0.9545942544841376,4.721410028742311e-13,3.7925162970569577,0.00018446603787096132,4.755870591352255,1.9759301999044965e-06,10.226794917791393,0.0,,,112.61023563836041,0.0,101.28888899398581,0.0
Camsa,-0.2857759972779507,0.0,-0.614838304334637,2.5397582223910133e-28,-0.7779917265410117,8.489796511237885e-54,-0.2857759972779508,0.0,-0.9641431367797256,1.142058272880395e-17,-0.9806242160409172,2.286992937052224e-21,3.6383995965733487,0.00033176444334074467,6.725973528460805,1.7442269850675984e-11,11.87502521118421,0.0,,,190.5072359030473,0.0,213.30663639314358,0.0
Aukan,-0.33346302866741223,6.186475693673562e-52,-0.5533029940916367,6.696680276755338e-29,-0.6826831028643473,2.1755790248060224e-48,-0.3334630286674122,6.186475693673825e-52,-0.9930069930069932,1.3016730560634403e-10,-0.9930069930069932,1.3016730560634403e-10,2.6189749200645154,0.009214368048684005,4.703187363916722,2.5613117113909567e-06,8.293287892236185,0.0,,,56.92876324089283,0.0,56.92876324089283,0.0
Creole,-0.2461209374073163,4.795803044085003e-43,-0.5530317721639859,4.133578457480993e-27,-0.72438631455701,1.8184646754285822e-53,-0.2461209374073163,4.795803044085003e-43,-0.9785714285714284,2.64545601239875e-10,-0.9678571428571427,3.5965355409315713e-09,3.5406934945915456,0.00045871006896494864,6.301335151984266,2.950926170086632e-10,11.289944292073926,0.0,,,,,,
Esperanto,-0.32919297257159863,0.0,-0.7179706454285127,2.2743641655605918e-38,-0.7831979524649729,8.834767087656543e-50,-0.32919297257159863,0.0,-0.9864469018175048,1.3952186660741663e-15,-0.9879529276218064,4.859549026235359e-16,1.877748370251712,0.061675593887578435,8.458151831981912,0.0,10.719783326020334,0.0,,,156.37681795385316,0.0,158.3009991786997,0.0
