,rho_f_sim_l,p_f_sim_l,rho_f_sim_m_l_f,p_f_sim_m_l_f,rho_f_sim_v_l_f,p_f_sim_v_l_f,rho_l_sim_f,p_l_sim_f,rho_l_sim_m_f_l,p_l_sim_m_f_l,rho_l_sim_v_f_l,p_l_sim_v_f_l,z_t_f_sim_m_l_f_and_f_sim_v_l_f,z_p_f_sim_m_l_f_and_f_sim_v_l_f,z_t_f_sim_l_and_f_sim_m_l_f,z_p_f_sim_l_and_f_sim_m_l_f,z_t_f_sim_l_and_f_sim_v_l_f,z_p_f_sim_l_and_f_sim_v_l_f,z_t_l_sim_m_f_l_and_l_sim_v_f_l,z_p_l_sim_m_f_l_and_l_sim_v_f_l,z_t_l_sim_f_and_l_sim_m_f_l,z_p_l_sim_f_and_l_sim_m_f_l,z_t_l_sim_f_and_l_sim_v_f_l,z_p_l_sim_f_and_l_sim_v_f_l
Latin,-0.3661606305730675,0.0,-0.8012610978650815,2.9390546550355367e-33,-0.7833725694891507,1.1035308103728816e-15,-0.3661606305730676,0.0,-0.5057136907345271,2.020690143497302e-05,-0.520622236557478,2.0063218332519945e-05,-0.8874444039049729,0.3763617245563896,8.48979199772324,0.0,7.921350533710827,2.4424906541753444e-15,0.10910868849990653,0.9134744195852844,36.34200634845664,7.59984925218376e-287,40.56150066310091,0.0
Greek,-0.37908189961893335,0.0,-0.7851311980355928,5.654567531732449e-32,-0.7613209706885644,2.4634103972749933e-16,-0.3790818996189333,0.0,-0.520622236557478,2.0063218332519945e-05,-0.5548156184972379,1.969985105496818e-05,-0.7445611270303385,0.4577504388158631,7.909434793774032,2.664535259100376e-15,7.198857912770313,6.072919944699604e-13,0.2355435373393278,0.8146311315948473,36.74658630699801,1.5960766816046193e-293,46.621920011430475,0.0
Romanian,-0.391367672435738,0.0,-0.8214437389334021,4.290049245735079e-42,-0.702788447978161,2.308964734716494e-14,-0.391367672435738,0.0,-0.5456482725663839,1.9802167036438068e-05,-0.5694608979427072,1.952839148100252e-05,-2.8460472651590254,0.00499199573274471,9.56894073315511,0.0,5.8780121229783475,4.152225230313889e-09,0.16714380638637974,0.8679178775929294,43.53262792165551,0.0,51.05707134499425,0.0
Italian,-0.3830607676452975,0.0,-0.7932066550277199,6.044471156540943e-37,-0.6531969731356307,3.862501144545925e-11,-0.3830607676452974,0.0,-0.5369148088493393,1.989622419891842e-05,-0.5595732051713175,1.9645254343007856e-05,-2.863851079786241,0.0047395629862646395,8.60134225586548,0.0,4.796923734787956,1.61120910657786e-06,0.16458358177362956,0.8698978601930993,41.75496404312864,0.0,48.60765050807263,0.0
Spanish,-0.3856167444084749,0.0,-0.8353504454334141,2.9532517262912443e-45,-0.5268729600841637,6.099948036004017e-07,-0.3856167444084749,0.0,-0.5884511826719374,3.5856380692133684e-06,-0.603351981388458,3.5223439400971846e-06,-5.539427093549988,1.1682842173299265e-07,10.284893014237491,0.0,2.3064175469698087,0.02108731245446971,0.11609074093959992,0.9080456462907502,54.00050468978937,0.0,58.65260119757488,0.0
Portuguese,-0.3845883468098384,0.0,-0.8387964420074766,8.998101406703815e-43,-0.3423029164224817,0.0017605267783148523,-0.3845883468098385,0.0,-0.5412294272573258,1.985016511007529e-05,-0.5644532247912052,1.958815863547908e-05,-7.77696032152459,9.946583867833597e-13,10.06393281927707,0.0,0.6042655649858216,0.5456670964277608,0.17049291679392511,0.8652841473722145,41.517210918413724,0.0,48.4069943743276,0.0
French,-0.3812901485769246,0.0,-0.8138079457437346,1.231111409689069e-42,-0.636505910741746,7.649381351507806e-11,-0.3812901485769247,0.0,-0.5745811871875518,3.6419535116261438e-06,-0.60856975184209,3.4994700267633597e-06,-3.7883015160637847,0.00020947552224498408,9.652665984461363,0.0,4.595607065961568,4.314911602243399e-06,0.2547522161227052,0.7999003967996066,49.84033533633563,0.0,60.218415993980024,0.0
English,-0.3969198872532451,0.0,-0.8046048629341339,1.3287902019725776e-42,-0.7731838153514872,4.2972466023328194e-18,-0.39691988725324506,0.0,-0.5456482725663839,1.9802167036438068e-05,-0.5908837533840097,1.9258558938360464e-05,-1.3282149313571787,0.1857981323675936,9.244023546155935,0.0,8.130000317042521,4.440892098500626e-16,0.3263767556845949,0.7454749195845891,44.13224560023612,0.0,59.36231277789367,0.0
Dutch,-0.3861890211270208,0.0,-0.8467254785746395,2.332793413642062e-47,-0.5775904972223648,2.521794036696225e-09,-0.3861890211270208,0.0,-0.5995066003749048,6.605632972922636e-07,-0.6279034837774118,6.272900607724308e-07,-5.710152366819763,5.133807915102789e-08,10.745382058341978,0.0,3.2284827447870827,0.0012444876647650376,0.22740527525366275,0.8209518331800674,60.76830407541011,0.0,70.51788979585154,0.0
Afrikaans,-0.4027426407069021,0.0,-0.8310736701247574,1.759067900164189e-47,-0.6401104921818066,1.0999473444524755e-11,-0.4027426407069021,0.0,-0.569460897942707,1.952839148100274e-05,-0.5853067803599822,1.933108564380523e-05,-4.311013435940302,2.685903716993285e-05,10.192993022495283,0.0,4.418051810451004,9.959454996266714e-06,0.10970107899258036,0.9131236353832656,45.20791603114604,0.0,50.0931841032798,0.0
German,-0.3788706041536383,0.0,-0.8537900595458746,8.713957826037701e-48,-0.4496935537933284,3.2155221715375124e-05,-0.3788706041536384,0.0,-0.5575020698910087,3.708022641865986e-06,-0.5837191405698958,3.6051269415985603e-06,-7.1703561972195535,2.56544074045987e-11,11.045791454640892,0.0,1.0849608014487042,0.27793901680412025,0.2114684947046233,0.8332759977214146,47.232812196268604,0.0,55.19624256123226,0.0
Swedish,-0.3925017059936086,0.0,-0.7998221324522917,7.33523725967244e-39,-0.7491929066099859,3.8097609152794335e-18,-0.3925017059936086,0.0,-0.5285825866348595,1.998297122491725e-05,-0.5595732051713175,1.9645254343007856e-05,-1.7947022628663427,0.07452068619469901,8.797683966657864,0.0,7.162605048998027,7.915890165577366e-13,0.21010489301286533,0.834362208119535,39.183169634701116,0.0,49.07010059507695,0.0
Norwegian,-0.4145786927028223,0.0,-0.8207569431292794,6.666606124129677e-45,-0.6115014987405036,1.102536170873734e-11,-0.4145786927028224,0.0,-0.5746017518701797,1.9465764447349508e-05,-0.614856715412465,1.892711373626277e-05,-4.37013906163743,2.117836856257341e-05,9.515978666617787,0.0,3.580906876839405,0.00034240368498528184,0.28549651856726005,0.7765738037626588,41.86491707261908,0.0,54.092355467320154,0.0
Danish,-0.4045444666462428,0.0,-0.8469972696632259,1.0798338054681964e-47,-0.7153088766313436,5.508269700555191e-16,-0.4045444666462427,0.0,-0.569460897942707,1.952839148100274e-05,-0.5798816428410006,1.9400071254541527e-05,-3.965287089243728,0.00010877682821210985,10.508421413362964,0.0,6.0358323575439226,1.5814536347136254e-09,0.07187723571669177,0.9430112168737068,44.07070522362741,0.0,47.21007127323604,0.0
Icelandic,-0.4246301022299632,0.0,-0.7898589080399034,6.166654093899299e-38,-0.6749923475995852,1.601881189184673e-13,-0.4246301022299632,0.0,-0.614856715412465,1.892711373626277e-05,-0.6279585844668962,1.8731480879270693e-05,-2.451392355184593,0.015248232410234912,8.021951256222744,1.1102230246251563e-15,4.759834304411019,1.937519554795486e-06,0.09520389190876594,0.924653161295073,52.85232915379182,0.0,57.1136238948025,0.0
Polish,-0.3608971132974448,0.0,-0.8210890951392537,1.7094310595387159e-31,-0.6595895978435514,1.6492941608221554e-10,-0.3608971132974448,0.0,-0.5093217079121384,2.0172897527903313e-05,-0.5369148088493392,1.989622419891841e-05,-3.2206279102156183,0.0016429476274549175,8.5988975177768,0.0,4.552862582601073,5.292084294339362e-06,0.18977131396318525,0.8501288912123449,34.61270060447339,7.956701432672645e-261,41.76448725451633,0.0
Slovak,-0.3639252741925497,0.0,-0.7928813343094097,7.8421602055079655e-31,-0.7276349419682626,2.0820999217003442e-13,-0.3639252741925497,0.0,-0.5369148088493393,1.989622419891842e-05,-0.5644532247912052,1.958815863547908e-05,-1.4717284243943458,0.14343888752626147,8.071015883802406,6.661338147750938e-16,6.272742844581673,3.5474245763111867e-10,0.2181766126520548,0.8281293965980325,45.784080459234154,0.0,54.02730302079376,0.0
Croatian,-0.39070618818282,0.0,-0.8197034831956855,6.145884676778795e-36,-0.6810303156979961,4.977199236800037e-12,-0.39070618818282,0.0,-0.5071652373450836,0.00010634235246255811,-0.5302405257970843,0.00010607249372591905,-3.245226136072883,0.0014681196892150099,8.786668863697653,0.0,4.946106388705637,7.571259041938561e-07,0.1442519838426534,0.8858813595893507,26.68159016690346,3.930716007630269e-156,32.419584227244805,5.012028269200213e-229
Serbian,-0.3895410125866787,0.0,-0.8479178121736529,5.721865409421874e-41,-0.7899913275859737,1.3421783353719527e-17,-0.3895410125866787,0.0,-0.5412294272573258,1.985016511007529e-05,-0.5746017518701798,1.9465764447349437e-05,,,9.9354388937048,0.0,7.83207558295307,4.884981308350689e-15,0.2256091760804869,0.822389771433534,37.97418443728263,8.47131090303e-313,47.38238830935133,0.0
Slovene,-0.38595136400520985,0.0,-0.8311868201100546,1.4634475848741999e-39,-0.7765140136997345,6.382538474166652e-18,-0.3859513640052099,0.0,-0.4868380523145838,0.00010654289596978844,-0.5115418476498648,0.00010629481984101472,-4.451859076394892,1.6727995890085033e-05,9.50895600051324,0.0,7.625969225487765,2.420286193682841e-14,0.17316220606649538,0.863159640059465,26.548128831787924,1.0779093201889907e-154,33.4939240354115,1.944224937044952e-244
Czech,-0.3631046016625002,0.0,-0.7783665076610067,8.153355402810282e-26,-0.6474719169853315,7.925588423791052e-10,-0.3631046016625002,0.0,-0.4907096447042342,0.00010650714191079026,-0.5115418476498648,0.00010629481984101472,-2.1281419424363057,0.035405666473373267,7.172997062056275,7.336353746723033e-13,4.238912144394663,2.2460552946856893e-05,0.13247543889608612,0.8951006563706166,32.33226316023598,4.8568918652869074e-228,38.04551822953995,3.040820228e-314
Latvian,-0.3654897929854759,0.0,-0.8387543495573555,8.477828836066779e-35,-0.7123783151572959,1.975842321607275e-11,-0.365489792985476,0.0,-0.5130072610111552,2.0137661432365148e-05,-0.5412294272573258,1.985016511007529e-05,-3.798839988069649,0.00022655318126324858,9.277498244908378,0.0,5.661514228894402,1.500430624190585e-08,0.2257549903675117,0.8221721967807465,32.52477462209855,1.2424763500699453e-230,39.466250679587226,0.0
Lithuanian,-0.35004265717139593,0.0,-0.8498305000927254,1.2985895974676394e-34,-0.6462595850249478,3.2334803923448274e-08,-0.35004265717139593,0.0,-0.4855537050521764,2.0388293566111882e-05,-0.5245576467104303,2.002386134195944e-05,-4.026566296589076,0.00010089500264122416,9.620404539788415,0.0,4.359814457437977,1.3017276982107973e-05,0.30846694557217497,0.7586841085644004,32.0434012640214,6.91718827439116e-224,42.173146380319814,0.0
Albanian,-0.3970722897579133,0.0,-0.7883365200156033,6.512041505654076e-38,-0.7569646408822199,2.221328757410024e-17,-0.3970722897579133,0.0,-0.5644532247912053,1.9588158635478935e-05,-0.5798816428410006,1.9400071254541527e-05,-0.99883983267014,0.31929190034650723,8.426741375336617,0.0,7.411216013991807,1.2523315717771766e-13,0.10142061280968813,0.919648017902186,44.019877407804344,0.0,48.63187443545697,0.0
Romani,-0.3988393023470481,0.0,-0.8350136483499975,2.567394520461348e-48,-0.5621474843592215,6.7004692502871494e-09,-0.3988393023470481,0.0,-0.5369148088493393,1.989622419891842e-05,-0.5746017518701798,1.9465764447349437e-05,-5.435806100758345,1.7772706525425005e-07,10.426752278358498,0.0,2.8486044439609923,0.004391143764260752,0.2553102547664313,0.7994716757803313,37.473090984283,3.1578450777135383e-305,48.94726805215285,0.0
Finnish,-0.35905563197981044,0.0,-0.8003345842642794,3.938707210812317e-33,-0.6326392176812398,4.221794255929859e-09,-0.35905563197981044,0.0,-0.4987197888854074,2.027145980011879e-05,-0.5167731306242291,2.0101125798258993e-05,-3.057068599047206,0.0026779077046014672,8.55663347277322,0.0,4.374465457390067,1.2173039598106786e-05,0.15022096004457025,0.8810702092358322,34.583121450189424,2.533229748109122e-260,39.4543745704408,0.0
Estonian,-0.3780857991319314,0.0,-0.8616860376806145,2.6477861054224e-41,-0.7049610499031527,3.922479249480556e-11,-0.37808579913193135,0.0,-0.5327004498315286,1.9940457904969573e-05,-0.545648272566384,1.9802167036437912e-05,-4.195616525961243,4.941467629117393e-05,10.39377360605937,0.0,5.522458989828328,3.342878396317417e-08,0.08647834164606895,0.931406040472828,37.45179931615628,3.0959951385577826e-304,40.91934751464935,0.0
Hungarian,-0.3624632905064459,0.0,-0.8295215366203152,1.0370178568392471e-35,-0.6938392530804204,1.8891292234462483e-12,-0.3624632905064459,0.0,-0.4687580004437586,0.00010669596363715718,-0.4946743027036045,0.0001064693724230536,-3.321268572102438,0.0011570491792004091,9.298743220397006,0.0,5.480984806066718,4.229648098430516e-08,0.1706531073956045,0.8650707104141774,25.77318328714795,5.813798474607295e-146,32.49977318272791,2.1400347429180957e-230
Paite,-0.4076793069106493,0.0,-0.8463576964523173,2.6545385419136607e-50,-0.2478665687823316,0.019890387791895912,-0.4076793069106493,0.0,-0.5837191405698957,3.6051269415985603e-06,-0.60856975184209,3.4994700267633597e-06,-9.853055274692574,1.6220054433565812e-18,10.740631490193284,0.0,2.381628309795833,0.0172362849258052,0.18504349221387612,0.8539288495312098,48.621292448280116,0.0,56.577150600969105,0.0
Vietnamese,-0.37382725745937495,0.0,-0.7625120515794183,7.90549060063459e-37,-0.19181353281623376,0.08235675990109183,-0.37382725745937495,0.0,-0.5403827973615027,0.00010593778303909294,-0.5684810741856909,0.0001055051300627965,-7.526748808737772,2.244727693962392e-12,8.258857134124918,2.220446049250313e-16,2.692463896706584,0.0070926214257949205,0.17150246586629686,0.8646332510604959,53.1058765057799,0.0,63.20626348241296,0.0
Turkish,-0.33568197348845835,0.0,-0.8645175918920982,7.483767744445503e-36,-0.7208332043130484,2.706298986836131e-11,-0.33568197348845835,0.0,-0.4763310559227483,2.0466622186277214e-05,-0.5057136907345271,2.020690143497302e-05,-3.935313974870855,0.00014392572923569067,10.216300167276966,0.0,5.950417567900883,2.67459254743585e-09,0.2240227481965945,0.8233921681160938,31.893821739773426,7.803733930089318e-222,39.16913755868928,0.0
Basque,-0.3439839853873292,0.0,-0.8352997024029789,8.538504222878936e-35,-0.5131422217454228,2.00196913178985e-05,-0.3439839853873292,0.0,-0.5016718460790135,3.900930073808079e-06,-0.5495058113433913,3.7377633558032652e-06,-4.9358202660092685,2.4752274427317245e-06,9.498762428638068,0.0,2.3374300720514505,0.01941683300749241,0.3951800308997177,0.6938624329770877,40.91777018018377,0.0,54.85521761609318,0.0
Hebrew,-0.40089801499069055,0.0,-0.8189679452108375,7.451875237652126e-35,-0.5386756171157986,3.629933461363976e-07,-0.40089801499069055,0.0,-0.5798816428410006,1.9400071254541527e-05,-0.5908837533840097,1.9258558938360464e-05,-4.4675105489409175,1.6500768737311568e-05,8.491967295736456,0.0,2.068592245686946,0.0385843662106502,0.0722769741371893,0.9427090414011126,37.56699533755348,1.660396829572196e-305,40.22459023928491,0.0
Somali,-0.3647037992427437,0.0,-0.8182012453342998,5.54500551634781e-35,-0.5424627138344376,7.14325252946673e-07,-0.3647037992427437,0.0,-0.5418392230078435,3.7655880037864373e-06,-0.5616311719882711,3.6923715390754717e-06,-4.545303320318621,1.193566258086495e-05,8.995280089688059,0.0,2.635688319011592,0.008396681869070166,0.15251148221770972,0.8792868784853354,49.62937127565362,0.0,55.88576794458702,0.0
Tachelhit,-0.34561815786173683,0.0,-0.8495502021600033,8.999990012293801e-32,-0.5313435216461976,1.253295406618042e-05,-0.34561815786173683,0.0,-0.520610127718113,3.839240641125407e-06,-0.5381227080797176,3.778838223542552e-06,-4.956673550406041,2.7045260884602687e-06,9.241325230010592,0.0,2.393410028849375,0.01669257476278818,0.1357934627864282,0.8923917322152491,39.09594418613703,0.0,43.46524725422858,0.0
Kabyle,-0.39572702705938617,0.0,-0.8653011026488606,1.189624660192047e-48,-0.6877148086904575,4.885026742589326e-12,-0.39572702705938617,0.0,-0.5412294272573258,1.985016511007529e-05,-0.5644532247912052,1.958815863547908e-05,-6.210512599709157,4.6403751413760145e-09,11.138772565967846,0.0,5.286864229074417,1.244309228987106e-07,0.15582751104340128,0.8767723496432539,35.969632493635004,3.148348470842173e-281,42.376012936190364,0.0
Wolaytta,-0.3317837697640448,0.0,-0.8307724019364293,4.345780650333309e-33,-0.5676736588315602,9.993059709960048e-07,-0.3317837697640447,0.0,-0.4593505427552072,2.060365771212099e-05,-0.4824206790789041,2.041521998009551e-05,-4.351768510388774,2.823265246249804e-05,9.335694150398043,0.0,3.303087345028348,0.0009562659714252851,0.16949916355910796,0.8658543860710601,29.944730665280403,4.879097904521347e-196,35.772150871133135,2.868193346071745e-278
Ewe,-0.4084835456142609,0.0,-0.8187250401672043,1.2572744830782523e-48,-0.5716279692633501,1.1810316569296654e-09,-0.4084835456142609,0.0,-0.5908837533840098,1.9258558938360393e-05,-0.6085978790074674,1.9016847379234773e-05,-4.970771485083106,1.4671215402939119e-06,9.98220218329324,0.0,3.0002604224678904,0.002697488658951919,0.11673367316738407,0.9076275237066898,62.75726215043603,0.0,69.78195152237353,0.0
Zulu,-0.3193794283589819,0.0,-0.7693101147664151,5.845029481037517e-22,-0.6181941353226781,6.327779665463293e-07,-0.31937942835898186,0.0,-0.4369576472478299,2.0771007361640507e-05,-0.4676112563672304,2.0538127723792e-05,-2.217379677856456,0.02879450234104897,6.974218148387891,3.0757618674215337e-12,3.966620318807975,7.289898257378802e-05,0.23243359521372794,0.8167599927989657,26.980457431844425,1.5546859715306566e-159,34.49257910602037,1.3231473146986558e-258
Xhosa,-0.32560253488455243,0.0,-0.7948650691967751,1.2931831646464603e-25,-0.6124471338081193,3.235847540634733e-07,-0.3256025348845524,0.0,-0.4489842259428051,2.0682953103453965e-05,-0.4824206790789041,2.041521998009551e-05,-2.7735724846388314,0.0065240073306930746,7.789525698831444,6.661338147750939e-15,3.9116962250644174,9.16501468439801e-05,0.2497502904300249,0.8034206527659319,27.79259018465391,3.3893291163446484e-169,35.90641727254314,4.08286752694231e-280
Swahili,-0.3567337043978465,0.0,-0.8327495886547494,9.827876542751705e-37,-0.4851905063927928,2.386274733385177e-05,-0.3567337043978466,0.0,-0.4824206790789041,2.041521998009551e-05,-0.5130072610111551,2.0137661432365148e-05,-5.262726943421913,5.441222532674033e-07,9.565657648007589,0.0,1.8182996473310882,0.06901834668221453,0.21782174128973514,0.8282203232302381,30.84179069845496,8.94398611037543e-208,38.99613207520253,0.0
Wolof,-0.4203998693169266,0.0,-0.8328574477634152,2.824211138093054e-45,-0.7642285359657031,2.970323817059988e-18,-0.4203998693169266,0.0,-0.5798816428410006,1.9400071254541527e-05,-0.614856715412465,1.892711373626277e-05,-4.041203287819704,8.079735577576214e-05,9.701679733420146,0.0,7.227238827719708,4.929390229335695e-13,0.23371873880981026,0.8162873597545491,43.986273534670495,0.0,55.10883861959164,0.0
Lukpa,-0.4113823147990195,0.0,-0.8433025648019637,3.2694652336968165e-54,-0.5746910407683897,1.448283296877062e-10,-0.4113823147990195,0.0,-0.5908837533840098,1.9258558938360393e-05,-0.6025216315790568,1.910175822356219e-05,-5.842817708640614,2.1505310494974267e-08,11.038085630720294,0.0,3.0151868580233403,0.002568209807249477,0.0762127851072121,0.939611699817968,54.474478820746526,0.0,58.536660436943684,0.0
Dinka,-0.4260358135528144,0.0,-0.8515841971796592,3.452663778099705e-55,-0.6149433072906123,2.069728393220082e-11,-0.4260358135528144,0.0,-0.596619558693279,1.9182217243555268e-05,-0.6213071012561296,1.8832144833689813e-05,-5.840738053737838,2.233287981218572e-08,11.081193970758786,0.0,3.595398846239417,0.00032389496412177365,0.16912024529165384,0.8665337017273391,48.81635928538231,0.0,57.0193545350197,0.0
Zarma,-0.4196600107739108,0.0,-0.7942579393820998,1.5154545723592907e-42,-0.4204353197100769,2.2155100949039195e-05,-0.4196600107739108,0.0,-0.6665349013394252,5.782160331729551e-07,-0.6788872875964332,5.615519495197371e-07,-5.94121700706517,1.356153661197023e-08,8.682837878150455,0.0,0.01286084135601302,0.989738816112639,0.10956072306757432,0.913279578340058,76.62910299307022,0.0,81.47387556844494,0.0
Malagasy,-0.3663582293502585,0.0,-0.8113003242888217,1.1442269625126986e-38,-0.3003439157938415,0.006791922273071674,-0.3663582293502585,0.0,-0.5631910269276992,6.998716340576371e-07,-0.5951292656070601,6.654904464035597e-07,-7.5014674927942275,4.3864887316841665e-12,9.347828879494818,0.0,0.9304197374052652,0.3521538032102409,0.24782170577778906,0.8050657453704769,52.34660108308484,0.0,62.28492058897736,0.0
Uma,-0.37592493124922094,0.0,-0.8570837256199794,8.13082120159768e-49,-0.3782920856316943,0.0003030605708135952,-0.37592493124922094,0.0,-0.5456327095798426,3.7519035417665945e-06,-0.5790971726347275,3.6238854955905778e-06,-7.499098442760317,3.992501643474654e-12,11.280776747979115,0.0,0.035098456997218086,0.9720012317935224,0.285703461335913,0.7760892988020978,49.09138388834975,0.0,60.12842749282269,0.0
Tagalog,-0.389091686809868,0.0,-0.7667687014421074,1.021558272371569e-35,-0.3448477926025328,0.001000987565257233,-0.389091686809868,0.0,-0.5745811871875518,3.6419535116261438e-06,-0.5884511826719375,3.5856380692133684e-06,-5.841719099926437,2.4652409133604243e-08,7.953037651309796,1.7763568394002505e-15,0.6760039739413318,0.499038121983864,0.10261017549529376,0.9186596244823564,54.12053794540785,0.0,58.75380373467657,0.0
Maori,-0.4459957674710449,0.0,-0.8337623003058554,2.0666542217471567e-58,-0.114846848072766,0.2601363200971425,-0.4459957674710449,0.0,-0.6367863289617974,3.3690228265668936e-06,-0.6556508589031877,3.2750488062410137e-06,-11.171508188169598,3.3127740900162376e-23,10.62865546322232,0.0,5.373372515931902,7.727744733010411e-08,0.14209704677235466,0.8876993265004971,54.154024726892786,0.0,60.66137335570442,0.0
Cebuano,-0.3861020093812241,0.0,-0.8041691916093603,1.0434122704177458e-40,-0.29806228220661835,0.004326781142826715,-0.3861020093812241,0.0,-0.5745811871875518,3.6419535116261438e-06,-0.5932976057640705,3.5653760320539137e-06,-7.237088262046482,1.480994170822891e-11,9.186857379956047,0.0,1.3042782869556302,0.19213871574448405,0.13862474940913644,0.890272067559758,52.721916087597435,0.0,58.78265114055245,0.0
Indonesian,-0.3623823181296403,0.0,-0.8382929712822528,4.3572657948677736e-41,-0.3874671397370594,0.0003839951164791936,-0.3623823181296403,0.0,-0.5016718460790135,3.900930073808079e-06,-0.5418392230078436,3.7655880037864373e-06,-7.377440566544617,1.0698328462205882e-11,10.161015159682679,0.0,0.3548869254229407,0.7226743037851955,0.3046136539058713,0.761527147378771,38.91825718135291,0.0,51.354625037693204,0.0
Galela,-0.3867306704231913,0.0,-0.8281928232824158,5.7597319475202066e-55,-0.22739328903110875,0.018498147223259997,-0.38673067042319137,0.0,-0.5866485582834178,6.748867865830672e-07,-0.6279034837774118,6.272900607724308e-07,-9.42642946684637,8.095837638523386e-18,11.214570714293512,0.0,2.556150645907594,0.010583728765675149,0.3246807586670196,0.7465908732804418,68.32125855923886,0.0,85.22347119875167,0.0
Cabecar,-0.3976739525638089,0.0,-0.8235776741621927,1.0838556448701773e-46,-0.3484756410565378,0.0007116408407515631,-0.3976739525638089,0.0,-0.5644532247912053,1.9588158635478935e-05,-0.5853067803599822,1.933108564380523e-05,-7.45094256386757,3.674854326695146e-12,10.040436538981847,0.0,0.7685398158945359,0.4421665453870418,0.1578239910369154,0.8752716146287529,49.6358385219121,0.0,56.66887293606244,0.0
Chinantec,-0.3617690413020752,0.0,-0.7204326351672488,1.835468822408001e-33,-0.5568685564013321,1.2429055184879728e-10,-0.3617690413020752,0.0,-0.4722140133323547,0.00010666839923451416,-0.4946743027036045,0.0001064693724230536,-2.5957547559391445,0.010145500340665416,7.448514778112471,9.43689570931383e-14,3.506983114606628,0.00045321790662544714,0.15787535517839965,0.875094113613172,41.30729541352088,0.0,50.28064084675575,0.0
Amuzgo,-0.35275001671668016,0.0,-0.8601596544423868,6.089055766121153e-49,-0.6038997540731275,1.1924175794085486e-09,-0.35275001671668016,0.0,-0.4887480744789747,2.036049806051326e-05,-0.4953289676326951,2.0302127753609408e-05,-5.819242668399896,3.134145664982444e-08,11.697946262885894,0.0,4.180240744268024,2.9120063922194458e-05,0.04581003342582038,0.9635999901380934,39.24532045156445,0.0,41.291904380658224,0.0
Nahuatl,-0.33536708279128996,0.0,-0.8040489832155857,3.0939732008148947e-35,-0.6819818445096498,4.528118049880386e-12,-0.33536708279128996,0.0,-0.4929394376511387,3.92815852707486e-06,-0.5274102971688366,3.816179074238348e-06,-2.883184414614373,0.00452811095413803,9.222234002892087,0.0,5.863979670807176,4.519028262706115e-09,0.3017211391567384,0.7636887243027282,45.02144861525328,0.0,55.95182641569644,0.0
Jakalteko,-0.3726614897511791,0.0,-0.8223669370629485,3.237785144175667e-45,-0.636407244153468,6.552415370680334e-13,-0.3726614897511791,0.0,-0.5456327095798426,3.7519035417665945e-06,-0.5701672948369043,3.6593679697066e-06,-4.037956684148015,8.037117462329737e-05,10.242610538496333,0.0,4.780766541486873,1.746280603009964e-06,0.17741219218145374,0.8597822053827201,54.20829231287308,0.0,62.92840723707635,0.0
Q'eqchi',-0.3816888543900116,0.0,-0.7738097593851962,9.853757206991587e-40,-0.5559439907864295,1.3132698230443125e-09,-0.3816888543900116,0.0,-0.5837191405698957,3.6051269415985603e-06,-0.5982629455650743,3.5442946221355904e-06,-3.9825905045214114,9.701587864001096e-05,8.646393769716685,0.0,3.097957224626473,0.001948595521346741,0.11493690031157824,0.9089464719143748,62.960883159188725,0.0,68.25609287316654,0.0
Uspanteco,-0.3665883740363951,0.0,-0.8271872996355346,3.5634499057103426e-46,-0.7123976136755872,6.60512078447831e-17,-0.3665883740363951,0.0,-0.5418392230078435,3.7655880037864373e-06,-0.5790971726347275,3.6238854955905778e-06,-3.43062755247707,0.0007503222100535213,10.536038263043837,0.0,6.729277718847986,1.7050805212193154e-11,0.28938431233794154,0.7732685950642721,54.36922376182102,0.0,67.63490210671685,0.0
K'iche',-0.3956029877478778,0.0,-0.8281298804542886,1.8655733657447982e-55,-0.7214957541196038,6.500864931732422e-20,-0.3956029877478778,0.0,-0.5456482725663839,1.9802167036438068e-05,-0.5694608979427072,1.952839148100252e-05,-3.960708689656006,0.00010204391161087625,11.112157147865362,0.0,7.163367703355499,7.87148124459236e-13,0.18360942588691712,0.8550479278932874,53.68116749861257,0.0,63.185995189439026,0.0
Cakchiquel,-0.3845365173996715,0.0,-0.8299681222899998,5.821110483540168e-59,-0.5935273035494621,6.647683523724211e-12,-0.3845365173996716,0.0,-0.5369148088493393,1.989622419891842e-05,-0.5595732051713175,1.9645254343007856e-05,-5.457124486626457,1.2784545138054357e-07,11.70637060334368,0.0,4.153920456713373,3.2682682722384726e-05,0.15185427332655707,0.8798784538410822,51.86799252951411,0.0,60.50803572751639,0.0
Mam,-0.3774603699266391,0.0,-0.7710800277250598,1.547700417718491e-36,-0.722842280412876,4.3385879833472045e-17,-0.3774603699266391,0.0,-0.5130072610111552,2.0137661432365148e-05,-0.5327004498315286,1.9940457904969573e-05,-1.1675676181554462,0.2445605418930205,8.297763522913543,0.0,6.847203509857253,7.530864820637362e-12,0.13434382490154975,0.8935879389550017,44.31380305254363,0.0,51.33745944185704,0.0
Quichua,-0.32568758233117273,0.0,-0.8247370970116199,9.660213090701036e-31,-0.4589000527481649,0.00037477393073864735,-0.32568758233117273,0.0,-0.479339257016152,3.969094220297538e-06,-0.5016718460790134,3.900930073808127e-06,-5.145546608835454,1.098442772262464e-06,8.970288142315852,0.0,1.6996618221658704,0.0891945544309043,0.18300810452699665,0.8552489612448604,36.180727332176005,2.099256521761877e-284,41.930391188507045,0.0
Aguaruna,-0.3396531847280959,0.0,-0.8393466077462712,8.067835173651707e-38,-0.4929145026725751,1.2598426023303605e-05,-0.3396531847280959,0.0,-0.4987101507903044,3.910249178058101e-06,-0.520610127718113,3.839240641125407e-06,-5.38857143087488,3.071163185991089e-07,10.046638667359028,0.0,2.162025492493322,0.030616211288857283,0.164902047279012,0.8694707168721706,40.82380062215694,0.0,47.0283542803238,0.0
Achuar,-0.3469845829307081,0.0,-0.8368636186396949,2.6655592986350396e-40,-0.26008936691058704,0.021465672300419267,-0.34698458293070816,0.0,-0.4987101507903044,3.910249178058101e-06,-0.5108806247171069,3.8713922477645966e-06,-8.584723877328921,1.244802453264143e-14,10.24718108247404,0.0,1.1569067615890514,0.2473104559127055,0.09117701893513147,0.9275982969019254,40.90620145173647,0.0,44.49443790043461,0.0
Shuar,-0.3350003657119117,0.0,-0.8604182291841985,1.3844358405102652e-39,-0.3301564946454532,0.009987395947670737,-0.3350003657119117,0.0,-0.4901275702934329,3.936767417318555e-06,-0.5108806247171069,3.8713922477645966e-06,-7.944275551203339,8.72211660514351e-13,10.701014683073856,0.0,0.06157494524682384,0.9509013298681476,0.15724831545819687,0.8754607608149276,41.39360476081929,0.0,47.4584141720026,0.0
Campa,-0.2963991847267753,0.0,-0.8831818950797403,1.1850391268496959e-34,-0.6307746291487787,3.179472822147072e-07,-0.2963991847267753,0.0,-0.4195645856375002,4.129256970353862e-06,-0.4529670753295285,4.043587525502018e-06,-5.788058577562483,8.388647383655204e-08,10.784812142022616,0.0,4.347151806144483,1.3791676777508146e-05,0.28511320793271466,0.7760984466473311,30.61000430902649,9.120541575990035e-205,39.480238958123735,0.0
Barasana,-0.34925277218840645,0.0,-0.8477724107588375,2.0444322719526765e-48,-0.4042041175855864,0.00012481692951811805,-0.34925277218840645,0.0,-0.5108806247171069,3.8713922477645966e-06,-0.5274102971688366,3.816179074238348e-06,-7.550593032335107,2.6322122268564044e-12,11.445829858720597,0.0,0.829969995926688,0.4065557478392952,0.12217346569068707,0.9031117098823837,48.09240816345756,0.0,53.54113628250535,0.0
Akawaio,-0.3983856361978427,0.0,-0.8082240984737918,3.5029720754952513e-44,-0.6024312209781489,1.3304708133636202e-10,-0.3983856361978428,0.0,-0.5658517964626416,3.676163288216732e-06,-0.5982629455650743,3.5442946221355904e-06,-4.180771222647398,4.4985104181308725e-05,9.463242357111694,0.0,3.719919882928317,0.00019928598412088933,0.2348014860378164,0.8152347865965978,48.492715477957276,0.0,59.26979053936947,0.0
Camsa,-0.3270019646587917,0.0,-0.8283678605895777,4.4621122514915585e-39,-0.3377522694453307,0.0026636865467402,-0.3270019646587917,0.0,-0.44405613506021946,2.0719536920188952e-05,-0.4620555869093021,2.05824318308653e-05,-6.739230383371721,3.372660424600162e-10,10.220712011625274,0.0,0.1464514635701626,0.8835650031660225,0.1342625082241375,0.8935239904974088,37.0922150070126,1.1915977190809e-299,43.148651115124466,0.0
Aukan,-0.4352939626344423,0.0,-0.812301942728004,3.0778388580876643e-60,-0.3332514045858917,0.0001997971510471482,-0.4352939626344423,0.0,-0.6605952333221947,5.860578175373191e-07,-0.6853130663175554,5.526902391493321e-07,-9.16725843145229,1.9154355679134115e-17,10.499559777027233,0.0,1.886860721451492,0.05917906136229267,0.20861619468667011,0.835732944268598,81.76247178265467,0.0,93.07262433446587,0.0
Creole,-0.4204239951788409,0.0,-0.8473969063177955,1.507655922747463e-58,-0.6755818867386502,4.958064347524002e-15,-0.4204239951788408,0.0,-0.5853067803599822,1.933108564380523e-05,-0.6085978790074674,1.9016847379234773e-05,-4.741557002543296,3.9657251954629925e-06,11.424290139310298,0.0,5.331850870097023,9.721676264007327e-08,0.164562464177574,0.8700595332421686,47.41020987575443,0.0,55.15436881293669,0.0
Esperanto,-0.3943213145393504,0.0,-0.8183893189743504,8.078768689478376e-41,-0.6685256611073008,8.147414725039527e-13,-0.3943213145393504,0.0,-0.5369148088493393,1.989622419891842e-05,-0.5694608979427072,1.952839148100252e-05,-3.277894064283528,0.0012813669928142795,9.31801163381579,0.0,4.958938732980219,7.087931415128423e-07,0.24959884825045525,0.803862458785749,37.59281677758543,6.6049981901781815e-307,47.18340641558849,0.0
