7.000000000000000000e+00, 3.085937500000000000e+00
5.000000000000000000e+01, 3.000000000000000000e+00
4.100000000000000000e+01, 2.000000000000000000e+00
1.100000000000000000e+01, 2.931034482758620552e+00
2.100000000000000000e+01, 2.899999999999999911e+00
1.600000000000000000e+01, 2.899999999999999911e+00
2.600000000000000000e+01, 2.750000000000000000e+00
2.300000000000000000e+01, 3.000000000000000000e+00
5.600000000000000000e+01, 3.000000000000000000e+00
6.300000000000000000e+01, 2.000000000000000000e+00
2.700000000000000000e+01, 2.600000000000000089e+00
3.700000000000000000e+01, 3.000000000000000000e+00
1.200000000000000000e+01, 2.775510204081632626e+00
2.200000000000000000e+01, 2.777777777777777679e+00
3.300000000000000000e+01, 3.000000000000000000e+00
3.000000000000000000e+00, 3.558850787766450363e+00
6.200000000000000000e+01, 3.000000000000000000e+00
4.300000000000000000e+01, 2.333333333333333481e+00
5.800000000000000000e+01, 2.000000000000000000e+00
6.000000000000000000e+00, 3.102222222222222214e+00
1.700000000000000000e+01, 2.826086956521739246e+00
2.800000000000000000e+01, 2.555555555555555358e+00
3.800000000000000000e+01, 2.000000000000000000e+00
3.200000000000000000e+01, 3.000000000000000000e+00
4.200000000000000000e+01, 3.000000000000000000e+00
3.900000000000000000e+01, 2.666666666666666519e+00
7.400000000000000000e+01, 2.000000000000000000e+00
1.300000000000000000e+01, 2.759999999999999787e+00
8.000000000000000000e+00, 2.971153846153846256e+00
1.800000000000000000e+01, 2.888888888888888840e+00
1.900000000000000000e+01, 2.705882352941176627e+00
2.000000000000000000e+00, 3.909224874742116107e+00
2.400000000000000000e+01, 2.899999999999999911e+00
2.900000000000000000e+01, 2.200000000000000178e+00
3.400000000000000000e+01, 2.000000000000000000e+00
1.400000000000000000e+01, 2.851851851851851638e+00
2.500000000000000000e+01, 3.000000000000000000e+00
4.400000000000000000e+01, 3.000000000000000000e+00
5.000000000000000000e+00, 3.214076246334310660e+00
3.500000000000000000e+01, 2.500000000000000000e+00
4.500000000000000000e+01, 2.000000000000000000e+00
4.000000000000000000e+01, 2.500000000000000000e+00
1.500000000000000000e+01, 2.785714285714285587e+00
9.000000000000000000e+00, 2.924050632911392444e+00
2.000000000000000000e+01, 2.600000000000000089e+00
4.700000000000000000e+01, 3.000000000000000000e+00
3.000000000000000000e+01, 2.666666666666666519e+00
6.100000000000000000e+01, 2.000000000000000000e+00
4.000000000000000000e+00, 3.364768683274021566e+00
1.000000000000000000e+00, 7.060257132132131908e+00
3.100000000000000000e+01, 2.500000000000000000e+00
3.600000000000000000e+01, 2.750000000000000000e+00
1.000000000000000000e+01, 2.854838709677419484e+00
