3.900000000000000000e+01, 3.333333333333333703e-01
4.400000000000000000e+01, 0.000000000000000000e+00
3.000000000000000000e+00, 4.341493274367629884e-01
8.000000000000000000e+00, 2.612957430918596002e-01
1.100000000000000000e+01, 2.407743496672716532e-01
3.400000000000000000e+01, nan
1.600000000000000000e+01, 9.473684210526314708e-02
1.000000000000000000e+00, 6.282435917703615758e+00
1.400000000000000000e+01, 1.310541310541310511e-01
4.500000000000000000e+01, nan
4.000000000000000000e+00, 3.497725845433611869e-01
1.800000000000000000e+01, 1.045751633986928136e-01
9.000000000000000000e+00, 1.992859461213892236e-01
5.000000000000000000e+01, nan
3.000000000000000000e+01, 2.666666666666666630e-01
3.500000000000000000e+01, 3.333333333333333148e-01
1.700000000000000000e+01, 1.501976284584980170e-01
4.000000000000000000e+01, 5.000000000000000000e-01
6.100000000000000000e+01, nan
2.000000000000000000e+01, 2.571428571428571730e-01
2.500000000000000000e+01, 0.000000000000000000e+00
5.000000000000000000e+00, 3.628601000517509001e-01
1.000000000000000000e+01, 2.244843997884716780e-01
5.600000000000000000e+01, nan
3.100000000000000000e+01, 3.333333333333333148e-01
1.300000000000000000e+01, 1.899999999999999745e-01
3.600000000000000000e+01, 2.500000000000000000e-01
4.100000000000000000e+01, 0.000000000000000000e+00
6.200000000000000000e+01, nan
2.600000000000000000e+01, 2.500000000000000000e-01
4.700000000000000000e+01, nan
6.000000000000000000e+00, 3.421825396825396992e-01
2.900000000000000000e+01, 1.999999999999999833e-01
3.700000000000000000e+01, nan
1.900000000000000000e+01, 2.205882352941176128e-01
4.200000000000000000e+01, nan
6.300000000000000000e+01, nan
2.200000000000000000e+01, 1.944444444444444198e-01
2.700000000000000000e+01, 2.999999999999999889e-01
3.200000000000000000e+01, 0.000000000000000000e+00
7.000000000000000000e+00, 3.153912401574803237e-01
2.100000000000000000e+01, 9.999999999999999167e-02
1.200000000000000000e+01, 1.777210884353741527e-01
5.800000000000000000e+01, nan
1.500000000000000000e+01, 1.813186813186813129e-01
3.800000000000000000e+01, 0.000000000000000000e+00
4.300000000000000000e+01, 3.333333333333333703e-01
2.000000000000000000e+00, 5.507197115037063551e-01
2.300000000000000000e+01, 0.000000000000000000e+00
2.800000000000000000e+01, 2.777777777777777346e-01
7.400000000000000000e+01, nan
3.300000000000000000e+01, nan
2.400000000000000000e+01, 9.999999999999999167e-02
