1.200000000000000000e+01, 1.000000000000000000e+00
9.000000000000000000e+00, 1.000000000000000000e+00
1.500000000000000000e+01, 1.000000000000000000e+00
5.000000000000000000e+00, 1.036757872999483743e+00
1.800000000000000000e+01, 1.000000000000000000e+00
1.000000000000000000e+00, 2.411764705882352811e+00
3.000000000000000000e+00, 3.310502283105023036e+00
8.000000000000000000e+00, 1.000000000000000000e+00
2.100000000000000000e+01, 1.000000000000000000e+00
1.400000000000000000e+01, 1.000000000000000000e+00
1.100000000000000000e+01, 1.000000000000000000e+00
4.000000000000000000e+00, 1.313657407407407440e+00
7.000000000000000000e+00, 1.000194678780012891e+00
2.000000000000000000e+01, 1.000000000000000000e+00
1.700000000000000000e+01, 1.000000000000000000e+00
1.000000000000000000e+01, 1.000000000000000000e+00
2.000000000000000000e+00, 7.343049327354259859e+00
1.300000000000000000e+01, 1.000000000000000000e+00
6.000000000000000000e+00, 1.002150884551271659e+00
1.600000000000000000e+01, 1.000000000000000000e+00
2.200000000000000000e+01, 1.000000000000000000e+00
1.900000000000000000e+01, 1.000000000000000000e+00
